<?xml version="1.0" standalone="no"?>
<!DOCTYPE svg PUBLIC "-//W3C//DTD SVG 1.1//EN" "http://www.w3.org/Graphics/SVG/1.1/DTD/svg11.dtd" >
<!--
2018-6-20: Created with FontForge (http://fontforge.org)
-->
<svg xmlns="http://www.w3.org/2000/svg" xmlns:xlink="http://www.w3.org/1999/xlink" version="1.1">
<metadata>
Created by FontForge 20160405 at Wed Jun 20 10:53:04 2018
 By Apache
Copyright (c) 2018, Apache
</metadata>
<defs>
<font id="Flaticon" horiz-adv-x="512" >
  <font-face 
    font-family="Flaticon"
    font-weight="400"
    font-stretch="normal"
    units-per-em="512"
    panose-1="2 0 5 3 0 0 0 0 0 0"
    ascent="448"
    descent="-64"
    bbox="-0.000976562 -64.0127 512.003 448"
    underline-thickness="25.6"
    underline-position="-51.2"
    unicode-range="U+0020-F11F"
  />
    <missing-glyph />
    <glyph glyph-name="space" unicode=" " horiz-adv-x="200" 
 />
    <glyph glyph-name="uniF111" unicode="&#xf111;" 
d="M495 -18.2002c8 -7.89941 8 -20.8994 0 -28.7998c-8 -8 -20.9004 -8 -28.9004 0l-117.8 117.7c-35.5996 -29.2002 -81.0996 -46.7002 -130.8 -46.7002c-114.1 0 -206.5 92.5 -206.5 206.5s92.4004 206.5 206.5 206.5c114 0 206.5 -92.5 206.5 -206.5
c0 -49.7002 -17.5996 -95.2998 -46.7998 -130.9zM217.5 65.0996c91.2002 0 165.5 74.2002 165.5 165.4s-74.2998 165.5 -165.5 165.5c-91.2998 0 -165.5 -74.2998 -165.5 -165.5s74.2002 -165.4 165.5 -165.4z" />
    <glyph glyph-name="uniF109" unicode="&#xf109;" 
d="M507.978 263.061c5.36328 -5.36133 5.36328 -14.0879 -0.00488281 -19.4473l-55.373 -55.373c-5.37598 -5.37598 -14.0762 -5.37598 -19.4502 0c-0.102539 0.101562 -2.22363 2.22266 -5.7793 5.77832c-0.750977 -0.750977 -1.58594 -1.58594 -2.54297 -2.54199
c-3.90234 -3.89941 -7.82129 -7.81445 -7.93945 -7.93262l-0.00878906 -0.00878906c-13.7207 -13.7031 3.33984 -30.7178 -20.0225 -54.0371l-40.3652 -40.3057c-0.113281 -0.113281 -0.233398 -0.213867 -0.351562 -0.317383
c-0.273438 -5.81055 -2.5918 -11.541 -7.01172 -15.9678c-0.461914 -0.925781 -4.97266 -4.41211 -9.6709 -5.93359c3.8291 -8.88477 2.12012 -19.6025 -5.12695 -26.8506c-7.48145 -7.48145 -18.2715 -8.8457 -26.8438 -5.1416
c-5.63965 -17.3564 -27.5869 -22.3975 -40.333 -9.65234l-5.75879 5.75781c-1.18457 -2.87305 -2.94141 -5.5625 -5.27148 -7.89258c-9.46973 -9.4707 -24.8887 -9.48145 -34.3721 0.000976562l-106.306 106.307c-23.3564 23.3135 -6.29883 40.3301 -20.0176 54.0322
l-10.6475 10.6387l-5.93555 -5.93457c-5.3623 -5.3623 -14.0879 -5.36328 -19.4512 0l-55.3721 55.373c-5.3623 5.3623 -5.3623 14.0889 0 19.4502c2.69336 2.69336 98.1602 98.1611 100.826 100.827c5.36426 5.36328 14.0908 5.36328 19.4521 0l13.0215 -13.0205
c2.92871 -2.92773 2.92871 -7.67773 0 -10.6074c-2.92871 -2.92871 -7.67871 -2.92969 -10.6074 0l-12.1396 12.1406c-9.57617 -9.57715 -89.4727 -89.4746 -99.0635 -99.0645l53.6094 -53.6094l99.0654 99.0635l-16.6826 16.6826
c-2.92871 2.92871 -2.92871 7.67871 0 10.6074c2.92773 2.92871 7.67773 2.92871 10.6074 0l17.5645 -17.5654c5.3623 -5.3623 5.3623 -14.0889 0 -19.4502l-6.35156 -6.35254l4.61914 -4.68945c0.0175781 -0.0185547 0.0341797 -0.0361328 0.0527344 -0.0546875
c6.07129 -5.95508 12.4082 -11.4258 17.7188 -11.4258h0.0380859c31.9678 0.154297 28.9141 -0.328125 60.4043 -12.666c31.9414 12.5146 28.4814 12.8193 60.4033 12.666h0.0371094c5.3125 0 11.6475 5.4707 17.7197 11.4248
c0.0175781 0.0185547 0.0351562 0.0371094 0.0537109 0.0556641l4.46484 4.5332l-6.50781 6.50879c-5.3623 5.3623 -5.3623 14.0889 0 19.4502l55.373 55.373c5.36328 5.3623 14.0889 5.3623 19.4512 0l37.748 -37.748c2.92871 -2.92773 2.92871 -7.67773 0 -10.6064
s-7.67871 -2.92871 -10.6074 0l-36.8662 36.8662l-53.6084 -53.6094c3.48145 -3.4834 95.7998 -95.8008 99.0625 -99.0645l53.6094 53.6094l-37.4121 37.4121c-2.92871 2.92773 -2.92871 7.67773 0 10.6074c2.92773 2.92871 7.67773 2.92871 10.6064 0zM338.516 83.5039
c3.60156 3.6084 3.58105 9.48926 -0.0439453 13.1123l-92.8594 92.8594l-30.1895 -4.08203c-15.3281 -2.50293 -25.7764 5.78418 -29.1455 16.6377c-3.25391 10.4814 0.516602 22.4844 10.7236 28.3438c2.39648 1.37695 -0.307617 0.205078 38.5928 15.4473
l-6.44922 2.52637c-28.0156 9.72754 -34.0967 -8.16992 -61.8076 19.0605c-0.0791016 0.0761719 -0.154297 0.154297 -0.228516 0.233398l-4.39551 4.46387l-67.3252 -67.3252l10.6445 -10.6367c10.2822 -10.2686 10.4609 -20.7695 10.6045 -29.208
c0.150391 -8.76953 0.267578 -15.6963 9.41113 -24.8223l106.317 -106.312c3.62793 -3.62793 9.53125 -3.62793 13.1572 -0.00195312c3.62793 3.62988 3.62988 9.53516 0.00292969 13.1621c0 0 2.98438 -2.73828 -53.9971 55.9297
c-2.8877 2.97168 -2.81738 7.7207 0.15332 10.6064c2.97266 2.88574 7.7207 2.81738 10.6064 -0.154297l65.2695 -67.2012l10.209 -10.209c3.64453 -3.64355 9.54004 -3.64258 13.1816 -0.000976562c3.64453 3.64453 3.6416 9.54004 0 13.1826
c-1.50879 1.50879 -75.1523 76.417 -76.1416 77.4229c-2.90332 2.95312 -2.86328 7.70312 0.0908203 10.6074c2.95312 2.90234 7.70312 2.8623 10.6064 -0.0908203c86.583 -88.0586 71.6387 -72.9209 85.043 -86.3242
c3.64258 -3.64355 9.54199 -3.63965 13.1807 -0.000976562c3.63379 3.63477 3.63477 9.54883 0 13.1826c-9.8584 9.85938 -65.4346 66.2432 -83.9424 85.0039c-2.90918 2.94824 -2.87695 7.69824 0.0722656 10.6074c2.94629 2.9082 7.69629 2.87793 10.6064 -0.0722656
l75.1504 -76.1777c3.64062 -3.38867 9.35742 -3.31836 12.9014 0.229492zM406.282 194.148c0.416016 0.417969 10.0518 10.0449 10.4834 10.4756c-7.55273 7.55176 -56.8008 56.8008 -67.3242 67.3252l-4.24023 -4.30664
c-0.0751953 -0.0791016 -0.151367 -0.157227 -0.229492 -0.234375c-7.81348 -7.67773 -17.0938 -15.8662 -28.3721 -15.8662h-0.112305c-13.2227 0.0644531 -21.374 0.951172 -33.3311 -3.19629l-76.8369 -30.1055
c-0.046875 -0.0195312 -0.09375 -0.0361328 -0.140625 -0.0546875c-5.43164 -2.00391 -6.76367 -7.26172 -5.68945 -11.3086c0.522461 -1.96875 2.97461 -8.26953 12.5879 -6.66797c0.160156 0.0273438 34.0459 4.60742 34.2061 4.62891
c2.38574 0.317383 4.71289 -0.532227 6.30859 -2.12891l97.6064 -97.6064l35.0625 35.0117c9.14551 9.12695 9.26367 16.0527 9.41211 24.8223c0.144531 8.43848 0.322266 18.9395 10.6094 29.2119z" />
    <glyph glyph-name="uniF107" unicode="&#xf107;" 
d="M496 304c8.83203 0 16 -7.16797 16 -16v-192c0 -8.83203 -7.16797 -16 -16 -16c-26.4639 0 -48 -21.5361 -48 -48c0 -8.83203 -7.16797 -16 -16 -16h-352c-8.83203 0 -16 7.16797 -16 16c0 26.4639 -21.5361 48 -48 48c-8.83203 0 -16 7.16797 -16 16v192
c0 8.83203 7.16797 16 16 16c26.4639 0 48 21.5361 48 48c0 8.83203 7.16797 16 16 16h352c8.83203 0 16 -7.16797 16 -16c0 -26.4639 21.5361 -48 48 -48zM480 110.4v163.199c-31.2959 6.40039 -56 31.1045 -62.4004 62.4004h-65.5996v-32h-32v32h-225.6
c-6.40039 -31.2959 -31.1045 -56 -62.4004 -62.4004v-163.199c31.2959 -6.40039 56 -31.1045 62.4004 -62.4004h225.6v32h32v-32h65.5996c6.40039 31.2959 31.1045 56.0322 62.4004 62.4004zM320 208v64h32v-64h-32zM320 112v64h32v-64h-32zM144 304
c26.4639 0 48 -21.5361 48 -48s-21.5361 -48 -48 -48s-48 21.5361 -48 48s21.5361 48 48 48zM144 240c8.83203 0 16 7.16797 16 16s-7.16797 16 -16 16s-16 -7.16797 -16 -16s7.16797 -16 16 -16zM240 176c26.4639 0 48 -21.5361 48 -48s-21.5361 -48 -48 -48
s-48 21.5361 -48 48s21.5361 48 48 48zM240 112c8.83203 0 16 7.16797 16 16s-7.16797 16 -16 16s-16 -7.16797 -16 -16s7.16797 -16 16 -16zM282.24 300.288c6.78418 -5.63184 7.71191 -15.7441 2.08008 -22.5283l-160 -192
c-3.16797 -3.80762 -7.71191 -5.75977 -12.3203 -5.75977c-3.61621 0 -7.26367 1.21582 -10.2402 3.67969c-6.78418 5.66406 -7.71191 15.7764 -2.04785 22.5605l160 192c5.63184 6.78418 15.7119 7.71191 22.5283 2.04785z" />
    <glyph glyph-name="uniF11A" unicode="&#xf11a;" 
d="M119.498 89.5645c-42.3848 0.0498047 -76.7334 34.3965 -76.7822 76.7822c0 42.4053 34.377 76.7822 76.7822 76.7822s76.7822 -34.377 76.7822 -76.7822s-34.377 -76.7822 -76.7822 -76.7822zM145.092 112.472v7.63672
c-0.111328 5.48828 -2.68555 10.6367 -7.01074 14.0176c-5.18164 4.39453 -11.7881 6.75098 -18.583 6.62695c-12.7188 1.20117 -24.0752 -7.95996 -25.5938 -20.6445v-7.63672c16.1729 -7.79199 35.0146 -7.79199 51.1875 0zM102.436 174.879
c0.00976562 -9.41992 7.64258 -17.0537 17.0625 -17.0635c9.42383 0 17.0635 7.63965 17.0635 17.0635s-7.63965 17.0625 -17.0635 17.0625s-17.0625 -7.63867 -17.0625 -17.0625zM64.3174 189.206c-9.24023 -22.3213 -4.11426 -48.0117 12.9844 -65.0791
c1.53809 11.2207 8.12109 21.1211 17.873 26.8799c-13.1748 13.3896 -13.0527 34.9102 0.274414 48.1494c13.3262 13.2383 34.8467 13.2197 48.1494 -0.0429688c13.3027 -13.2637 13.3867 -34.7832 0.1875 -48.1494c1.89844 -1.14453 3.69922 -2.44141 5.38965 -3.875
c6.9375 -5.78516 11.4131 -13.998 12.5156 -22.9648c17.0996 17.0654 22.2275 42.7559 12.9893 65.0791c-9.23926 22.3232 -31.0234 36.875 -55.1826 36.8633c-24.1582 0.0117188 -45.9414 -14.5391 -55.1807 -36.8604zM221.874 277.255
c9.41992 -0.00976562 17.0537 -7.64355 17.0635 -17.0635v-307.128c-0.00976562 -9.41992 -7.64355 -17.0547 -17.0635 -17.0635h-204.752c-9.41992 0.00976562 -17.0537 7.64355 -17.0635 17.0635v307.128c0.0107422 9.41992 7.64355 17.0547 17.0635 17.0635h48.5889
c-33.5703 23.4805 -48.0303 66.0234 -35.7207 105.098c12.3076 39.0732 48.542 65.6475 89.5078 65.6475c40.9668 0 77.1992 -26.5742 89.5098 -65.6475c12.3086 -39.0742 -2.15137 -81.6172 -35.7207 -105.098h48.5869zM42.7158 354.037
c0.0488281 -42.3857 34.3975 -76.7334 76.7822 -76.7822c42.4053 0 76.7822 34.377 76.7822 76.7822s-34.377 76.7822 -76.7822 76.7822s-76.7822 -34.376 -76.7822 -76.7822zM17.1221 -46.9365h204.765l-0.0126953 307.128h-204.752v-307.128zM102.436 72.502h34.125
c4.71191 0 8.53027 -3.81836 8.53027 -8.53027s-3.81836 -8.53125 -8.53027 -8.53125h-34.125c-4.71191 0 -8.53125 3.81934 -8.53125 8.53125s3.81934 8.53027 8.53125 8.53027zM42.7158 21.3145c-4.71191 0 -8.53125 3.81836 -8.53125 8.53027
s3.81934 8.53125 8.53125 8.53125h85.3135c4.71191 0 8.53125 -3.81934 8.53125 -8.53125s-3.81934 -8.53027 -8.53125 -8.53027h-85.3135zM196.28 38.376c4.71191 0 8.53125 -3.81934 8.53125 -8.53125s-3.81934 -8.53027 -8.53125 -8.53027h-34.125
c-4.71191 0 -8.53125 3.81836 -8.53125 8.53027s3.81934 8.53125 8.53125 8.53125h34.125zM196.28 4.25098c4.71191 0 8.53125 -3.81934 8.53125 -8.53125c0 -4.71094 -3.81934 -8.53027 -8.53125 -8.53027h-85.3135c-4.71191 0 -8.53027 3.81836 -8.53027 8.53027
c0 4.71094 3.81836 8.53125 8.53027 8.53125h85.3135zM76.8408 4.25098c4.71191 0 8.53223 -3.81934 8.53125 -8.53125c0 -4.71094 -3.81934 -8.53027 -8.53125 -8.53027h-34.125c-4.71191 0 -8.53125 3.81836 -8.53125 8.53027c0 4.71094 3.81934 8.53125 8.53125 8.53125
h34.125zM392.502 89.5645c-42.3857 0.0498047 -76.7334 34.3965 -76.7822 76.7822c0 42.4053 34.377 76.7822 76.7822 76.7822s76.7822 -34.377 76.7822 -76.7822s-34.377 -76.7822 -76.7822 -76.7822zM418.096 112.472h0.000976562v7.63672
c-0.112305 5.48828 -2.68652 10.6367 -7.01074 14.0176c-5.18359 4.39453 -11.79 6.75098 -18.584 6.62695c-12.7188 1.20117 -24.0752 -7.95996 -25.5938 -20.6445v-7.63672c16.1729 -7.79199 35.0146 -7.79199 51.1875 0zM375.438 174.879
c0.00878906 -9.41992 7.64355 -17.0537 17.0635 -17.0635c9.42383 0 17.0625 7.63965 17.0625 17.0635s-7.63867 17.0625 -17.0625 17.0625s-17.0635 -7.63867 -17.0635 -17.0625zM337.32 189.206c-9.23926 -22.3213 -4.11523 -48.0117 12.9844 -65.0791
c1.53711 11.2207 8.12109 21.1211 17.873 26.8799c-13.1738 13.3896 -13.0527 34.9102 0.274414 48.1494c13.3271 13.2383 34.8467 13.2197 48.1504 -0.0429688c13.3027 -13.2637 13.3867 -34.7832 0.1875 -48.1494c1.89746 -1.14453 3.69922 -2.44141 5.38867 -3.875
c6.93848 -5.78516 11.4131 -13.998 12.5166 -22.9648c17.0996 17.0654 22.2275 42.7559 12.9883 65.0791c-9.23828 22.3232 -31.0225 36.875 -55.1816 36.8633c-24.1582 0.0117188 -45.9414 -14.5391 -55.1816 -36.8604zM494.878 277.255
c9.41895 -0.00976562 17.0527 -7.64355 17.0645 -17.0635v-307.128c-0.0107422 -9.41992 -7.64355 -17.0547 -17.0635 -17.0635h-204.752c-9.41992 0.00976562 -17.0547 7.64355 -17.0635 17.0635v307.128c0.00976562 9.41992 7.64355 17.0547 17.0635 17.0635h48.5869
c-33.5693 23.4805 -48.0293 66.0234 -35.7207 105.098c12.3096 39.0732 48.542 65.6475 89.5088 65.6475c40.9658 0 77.1992 -26.5742 89.5088 -65.6475c12.3096 -39.0742 -2.15039 -81.6172 -35.7207 -105.098h48.5879zM315.72 354.037
c0.0488281 -42.3857 34.3965 -76.7334 76.7822 -76.7822c42.4053 0 76.7822 34.377 76.7822 76.7822s-34.377 76.7822 -76.7822 76.7822s-76.7822 -34.376 -76.7822 -76.7822zM290.126 -46.9365h204.764l-0.0117188 307.128h-204.752v-307.128zM375.438 72.502h34.125
c4.71191 0 8.53125 -3.81836 8.53125 -8.53027s-3.81934 -8.53125 -8.53125 -8.53125h-34.125c-4.71191 0 -8.53027 3.81934 -8.53027 8.53125s3.81836 8.53027 8.53027 8.53027zM315.72 21.3145c-4.71191 0 -8.53125 3.81836 -8.53125 8.53027
s3.81934 8.53125 8.53125 8.53125h85.3135c4.71191 0 8.53027 -3.81934 8.53027 -8.53125s-3.81836 -8.53027 -8.53027 -8.53027h-85.3135zM469.284 38.376c4.71094 0 8.53125 -3.81934 8.53125 -8.53125s-3.81934 -8.53027 -8.53125 -8.53027h-34.125
c-4.71191 0 -8.53125 3.81836 -8.53125 8.53027s3.81934 8.53125 8.53125 8.53125h34.125zM469.284 4.25098c4.71094 0 8.53125 -3.81934 8.53125 -8.53125c0 -4.71094 -3.81934 -8.53027 -8.53125 -8.53027h-85.3135c-4.71191 0 -8.53125 3.81836 -8.53125 8.53027
c0 4.71094 3.81934 8.53125 8.53125 8.53125h85.3135zM349.845 4.25098c4.71191 0 8.53125 -3.81934 8.53125 -8.53125c0 -4.71094 -3.81934 -8.53027 -8.53125 -8.53027h-34.125c-4.71191 0 -8.53125 3.81836 -8.53125 8.53027c0 4.71094 3.81934 8.53125 8.53125 8.53125
h34.125zM158.743 394.985c3.76758 -2.82715 4.53125 -8.17383 1.70312 -11.9424l-51.1875 -68.251c-1.4834 -1.97852 -3.75293 -3.21582 -6.21973 -3.3916c-0.200195 -0.0126953 -0.404297 -0.0205078 -0.603516 -0.0205078
c-2.2627 -0.000976562 -4.43359 0.897461 -6.03223 2.49902l-17.0625 17.0635c-3.28027 3.33984 -3.25684 8.7002 0.0537109 12.0088c3.31055 3.30957 8.66895 3.33398 12.0088 0.0546875l10.1074 -10.1064l45.2891 60.3818c2.82715 3.76855 8.1748 4.53125 11.9434 1.7041z
M420.596 313.879l-28.0938 28.0938l-28.0938 -28.0938c-2.15039 -2.17676 -5.30273 -3.03613 -8.25977 -2.25c-2.95801 0.785156 -5.26758 3.0957 -6.05371 6.05371c-0.786133 2.95703 0.0732422 6.10938 2.25 8.25977l28.0938 28.0938l-28.0938 28.0928
c-3.28027 3.34082 -3.25586 8.69922 0.0546875 12.0098c3.30957 3.30859 8.66895 3.33398 12.0088 0.0537109l28.0938 -28.0938l28.0938 28.0938c1.59863 1.60059 3.76855 2.5 6.03125 2.5s4.43164 -0.899414 6.03125 -2.5c1.60059 -1.59961 2.5 -3.76855 2.5 -6.03125
s-0.900391 -4.43262 -2.5 -6.03223l-28.0928 -28.0928l28.0928 -28.0938c2.17773 -2.15039 3.03613 -5.30273 2.25098 -8.25977c-0.786133 -2.95801 -3.09668 -5.26855 -6.05371 -6.05371c-2.95703 -0.786133 -6.10938 0.0732422 -8.25977 2.25z" />
    <glyph glyph-name="uniF10A" unicode="&#xf10a;" 
d="M488.399 -44c5.52246 0 10 -4.47656 10 -10s-4.47754 -10 -10 -10h-464.799c-5.52246 0 -10 4.47656 -10 10s4.47754 10 10 10h23.1162v90.2041c0 14.8223 12.0596 26.8818 26.8818 26.8818h49.0254c14.8223 0 26.8818 -12.0586 26.8818 -26.8818v-90.2041h55.6924
v174.175c0 14.8223 12.0586 26.8818 26.8818 26.8818h49.0234c14.8232 0 26.8828 -12.0586 26.8828 -26.8818v-174.175h55.6914v318.464c0 14.8223 12.0596 26.8818 26.8818 26.8818h49.0244c14.8223 0 26.8818 -12.0586 26.8818 -26.8818v-318.464h21.9336zM129.504 -44
v90.2041c0 3.79492 -3.08691 6.88184 -6.88184 6.88184h-49.0244c-3.79492 0 -6.88184 -3.08691 -6.88184 -6.88184v-90.2041h62.7881zM287.985 -44v174.175c0 3.79492 -3.08789 6.88184 -6.88281 6.88184h-49.0234c-3.79492 0 -6.88184 -3.08691 -6.88184 -6.88184
v-174.175h62.7881zM446.466 -44v318.464c0 3.79492 -3.08691 6.88184 -6.88184 6.88184h-49.0244c-3.79492 0 -6.88184 -3.08691 -6.88184 -6.88184v-318.464h62.7881zM466.442 437.484c0.00683594 -0.162109 0.0234375 -0.321289 0.0234375 -0.484375v-56.9531
c0 -5.52246 -4.47656 -10 -10 -10c-5.52246 0 -10 4.47754 -10 10v33.8105l-105.928 -105.928c-3.90625 -3.9043 -10.2383 -3.9043 -14.1436 0l-37.2793 37.2803l-172.698 -172.699c-1.95215 -1.95312 -4.51172 -2.92871 -7.07129 -2.92871
c-2.55859 0 -5.11816 0.975586 -7.07031 2.92676c-3.90527 3.90625 -3.90527 10.2383 0 14.1436l179.769 179.77c1.875 1.875 4.41895 2.92871 7.07129 2.92871c2.65137 0 5.19531 -1.05371 7.07031 -2.92871l37.2803 -37.2803l98.8574 98.8584h-37.3574
c-5.52246 0 -10 4.47656 -10 10s4.47754 10 10 10h60.5c0.164062 0 0.323242 -0.0166016 0.484375 -0.0244141c2.72852 0.141602 5.50391 -0.819336 7.58789 -2.90332s3.04395 -4.85938 2.9043 -7.58789zM65.6396 144.69c0 5.52246 4.47754 10 10 10
c5.52344 0 10 -4.47754 10 -10c0 -5.52344 -4.47656 -10 -10 -10c-5.52246 0 -10 4.47656 -10 10z" />
    <glyph glyph-name="uniF118" unicode="&#xf118;" 
d="M256.001 349.963c-25.708 0 -46.5459 20.8398 -46.5459 46.5459s20.8398 46.5459 46.5459 46.5459s46.5449 -20.8398 46.5449 -46.5459s-20.8389 -46.5459 -46.5449 -46.5459zM256.001 419.781c-12.8545 0 -23.2734 -10.4189 -23.2734 -23.2725
s10.4189 -23.2725 23.2734 -23.2725c12.8535 0 23.2725 10.4189 23.2725 23.2725s-10.4189 23.2725 -23.2725 23.2725zM272.908 342.414c35.0176 0.628906 63.917 -27.25 64.5469 -62.2695v-9.30859c0 -6.40039 -6.39941 -9.8916 -12.7998 -9.8916h-137.31
c-6.39941 0 -12.7998 3.49121 -12.7998 9.8916v9.30859c0.00390625 0.205078 0.00878906 0.411133 0.0146484 0.616211c0.969727 35.0117 30.1377 62.6084 65.1494 61.6387h32.582c0.205078 0.00585938 0.410156 0.0107422 0.616211 0.0146484zM198.982 284.219h114.035
c-1.16211 17.4551 -19.1992 34.9092 -40.7266 34.9092h-32.582c-21.5264 0 -39.5625 -17.4551 -40.7266 -34.9092zM66.9092 147.491c-6.42676 0 -11.6357 5.20898 -11.6357 11.6357c-0.0830078 60.8691 27.5391 118.467 75.0547 156.51
c4.66016 3.08691 10.8584 2.42285 14.7598 -1.58203c4.48438 -4.60352 4.38867 -11.9697 -0.214844 -16.4551c-41.9668 -33.708 -66.3643 -84.6436 -66.3271 -138.473c0 -6.42676 -5.20996 -11.6357 -11.6367 -11.6357zM312.709 -8.91699
c6.05859 2.14551 12.709 -1.02637 14.8535 -7.08203c1.94043 -6.25488 -1.39648 -12.9268 -7.56348 -15.1279c-41.3232 -13.9658 -86.0928 -13.9658 -127.418 0c-0.229492 0.0712891 -0.455078 0.151367 -0.678711 0.238281
c-5.69141 2.21094 -8.5127 8.61621 -6.30273 14.3076c1.94824 6.08789 8.44238 9.46582 14.5449 7.56348c36.4375 -12.1963 75.8545 -12.1963 112.292 0c0.0898438 0.0341797 0.181641 0.0683594 0.272461 0.100586zM358.4 304
c-5.30176 3.69531 -6.60449 10.9893 -2.91016 16.291c3.69629 5.30273 10.9902 6.60449 16.292 2.90918c53.1475 -37.7666 84.7842 -98.874 84.9453 -164.073c0 -6.42676 -5.20898 -11.6357 -11.6357 -11.6357s-11.6367 5.20898 -11.6367 11.6357
c0.0800781 57.6357 -27.9268 111.694 -75.0547 144.873zM81.4551 29.9629c-25.7061 0 -46.5459 20.8389 -46.5459 46.5459s20.8398 46.5459 46.5459 46.5459s46.5449 -20.8398 46.5449 -46.5459s-20.8389 -46.5459 -46.5449 -46.5459zM81.4551 99.7812
c-12.8535 0 -23.2734 -10.4189 -23.2734 -23.2725s10.4199 -23.2725 23.2734 -23.2725s23.2725 10.4189 23.2725 23.2725s-10.4189 23.2725 -23.2725 23.2725zM98.3623 22.4141c35.0195 0.628906 63.918 -27.25 64.5459 -62.2695v-9.30859
c0 -6.40039 -6.40039 -9.8916 -12.7998 -9.8916h-137.31c-6.39941 0 -12.7998 3.49121 -12.7998 9.8916v9.30859c0.00390625 0.205078 0.00878906 0.411133 0.0146484 0.616211c0.969727 35.0117 30.1377 62.6084 65.1494 61.6387h32.583
c0.205078 0.00585938 0.410156 0.0107422 0.616211 0.0146484zM24.4365 -35.7812h114.035c-1.16211 17.4551 -19.1992 34.9092 -40.7266 34.9092h-32.582c-21.5264 0 -39.5625 -17.4551 -40.7266 -34.9092zM384 76.5088c0 25.707 20.8389 46.5459 46.5449 46.5459
s46.5459 -20.8398 46.5459 -46.5459s-20.8398 -46.5459 -46.5459 -46.5459s-46.5449 20.8398 -46.5449 46.5459zM453.818 76.5088c0 12.8535 -10.4199 23.2725 -23.2734 23.2725s-23.2725 -10.4189 -23.2725 -23.2725s10.4189 -23.2725 23.2725 -23.2725
s23.2734 10.4189 23.2734 23.2725zM447.452 22.4141c35.0195 0.628906 63.9189 -27.25 64.5479 -62.2695v-9.30859c0 -6.40039 -6.40039 -9.8916 -12.7998 -9.8916h-137.31c-6.40039 0 -12.7998 3.49121 -12.7998 9.8916v9.30859
c0.00390625 0.205078 0.00878906 0.411133 0.0146484 0.616211c0.969727 35.0117 30.1377 62.6084 65.1494 61.6387h32.582c0.205078 0.00585938 0.40918 0.0107422 0.615234 0.0146484zM373.527 -35.7812h114.035c-1.16309 17.4551 -19.1992 34.9092 -40.7266 34.9092
h-32.582c-21.5264 0 -39.5635 -17.4551 -40.7266 -34.9092z" />
    <glyph glyph-name="uniF10E" unicode="&#xf10e;" 
d="M256 234.667c18.8252 0 34.1328 -15.3086 34.1338 -34.1328v-44.0156c-21.6582 -9.53125 -46.6084 -9.53125 -68.2666 0v44.0156c0 18.8242 15.3076 34.1328 34.1328 34.1328zM204.8 166.563c-20.6758 15.5898 -34.1328 40.2764 -34.1328 68.1035
c0 47.0518 38.2812 85.333 85.333 85.333s85.333 -38.2803 85.333 -85.333c0 -27.8271 -13.457 -52.5137 -34.1328 -68.1035v33.9707c0 19.2861 -10.7266 36.0957 -26.5137 44.8262c5.81934 6.11719 9.44629 14.3438 9.44629 23.4404
c0 18.8242 -15.3086 34.1328 -34.1328 34.1328s-34.1328 -15.3076 -34.1328 -34.1328c0 -9.0957 3.62598 -17.3232 9.44629 -23.4404c-15.7871 -8.73047 -26.5137 -25.541 -26.5137 -44.8262v-33.9707zM273.067 268.8c0 -9.41211 -7.65527 -17.0664 -17.0674 -17.0664
c-9.41309 0 -17.0674 7.65332 -17.0674 17.0664s7.65527 17.0674 17.0674 17.0674c9.41309 0 17.0674 -7.65527 17.0674 -17.0674zM409.6 396.8c14.1143 0 25.6006 -11.4854 25.6006 -25.5996v-409.601c0 -14.1133 -11.4863 -25.5996 -25.6006 -25.5996h-307.199
c-14.1143 0 -25.6006 11.4863 -25.6006 25.5996v409.601c0 14.1143 11.4863 25.5996 25.6006 25.5996h119.467v17.0674c0 18.8242 15.3076 34.1328 34.1328 34.1328s34.1328 -15.3086 34.1328 -34.1328v-17.0674h119.467zM256 430.933
c-6.30566 0 -11.8193 -3.42969 -14.7715 -8.53223h29.543c-2.95215 5.10254 -8.46582 8.53223 -14.7715 8.53223zM238.933 388.267v-17.0664h34.1338v17.0654v17.0674h-34.1338v-17.0664zM256 337.067c-56.4648 0 -102.4 -45.9355 -102.4 -102.4
c0 -39.6201 22.6562 -73.9834 55.6631 -90.999c0.0595703 -0.0429688 0.111328 -0.102539 0.179688 -0.136719c0.332031 -0.162109 0.665039 -0.273438 0.998047 -0.435547c2.90918 -1.45898 5.89648 -2.77246 8.96875 -3.95117
c0.871094 -0.341797 1.75781 -0.65625 2.63672 -0.972656c2.60352 -0.913086 5.24805 -1.72363 7.94531 -2.43164c1.13477 -0.298828 2.26953 -0.614258 3.41309 -0.878906c2.57715 -0.580078 5.20508 -1.02441 7.8584 -1.4082
c1.13574 -0.163086 2.25293 -0.393555 3.39648 -0.521484c3.72852 -0.40918 7.50098 -0.666016 11.3408 -0.666016s7.6123 0.256836 11.3408 0.666016c1.14355 0.12793 2.26074 0.359375 3.39648 0.521484c2.65332 0.383789 5.28125 0.828125 7.8584 1.4082
c1.14355 0.264648 2.27832 0.580078 3.41309 0.878906c2.69727 0.708008 5.3418 1.51855 7.94531 2.43164c0.878906 0.316406 1.7666 0.631836 2.63672 0.972656c3.07324 1.17871 6.05957 2.49219 8.96875 3.95117c0.332031 0.162109 0.665039 0.273438 0.998047 0.435547
c0.0683594 0.0351562 0.119141 0.09375 0.179688 0.136719c33.0068 17.0146 55.6631 51.3789 55.6631 90.999c0 56.4648 -45.9355 102.4 -102.4 102.4zM332.8 89.5996c0 4.71973 -3.82324 8.5332 -8.5332 8.5332h-42.667c-4.70996 0 -8.53223 -3.81348 -8.53223 -8.5332
c0 -4.71875 3.82227 -8.53223 8.53223 -8.53223h42.667c4.70996 0 8.5332 3.81348 8.5332 8.53223zM256 89.5996c0 4.71973 -3.82324 8.5332 -8.5332 8.5332h-51.2002c-4.71875 0 -8.53223 -3.81348 -8.53223 -8.5332c0 -4.71875 3.81348 -8.53223 8.53223 -8.53223h51.2002
c4.70996 0 8.5332 3.81348 8.5332 8.53223zM136.533 98.1328c-4.70996 0 -8.5332 -3.81348 -8.5332 -8.5332c0 -4.71875 3.82324 -8.53223 8.5332 -8.53223h25.5996c4.71875 0 8.5332 3.81348 8.5332 8.53223c0 4.71973 -3.81445 8.5332 -8.5332 8.5332h-25.5996z
M136.533 46.9326c-4.70996 0 -8.5332 -3.81348 -8.5332 -8.53223c0 -4.71973 3.82324 -8.5332 8.5332 -8.5332h68.2666c4.70996 0 8.5332 3.81348 8.5332 8.5332c0 4.71875 -3.82324 8.53223 -8.5332 8.53223h-68.2666zM221.867 -21.333
c4.70996 0 8.5332 3.81445 8.5332 8.5332s-3.82324 8.5332 -8.5332 8.5332h-85.333c-4.70996 0 -8.5332 -3.81445 -8.5332 -8.5332s3.82324 -8.5332 8.5332 -8.5332h85.333zM230.4 38.4004c0 -4.71973 3.82227 -8.5332 8.53223 -8.5332h68.2676
c4.70996 0 8.5332 3.81348 8.5332 8.5332c0 4.71875 -3.82324 8.53223 -8.5332 8.53223h-68.2676c-4.70996 0 -8.53223 -3.81348 -8.53223 -8.53223zM281.6 -21.333c4.70996 0 8.5332 3.81445 8.5332 8.5332s-3.82324 8.5332 -8.5332 8.5332h-25.5996
c-4.70996 0 -8.5332 -3.81445 -8.5332 -8.5332s3.82324 -8.5332 8.5332 -8.5332h25.5996zM375.467 -21.333c4.70996 0 8.5332 3.81445 8.5332 8.5332s-3.82324 8.5332 -8.5332 8.5332h-59.7324c-4.70996 0 -8.5332 -3.81445 -8.5332 -8.5332s3.82324 -8.5332 8.5332 -8.5332
h59.7324zM375.467 29.8672c4.70996 0 8.5332 3.81348 8.5332 8.5332c0 4.71875 -3.82324 8.53223 -8.5332 8.53223h-34.1328c-4.70996 0 -8.5332 -3.81348 -8.5332 -8.53223c0 -4.71973 3.82324 -8.5332 8.5332 -8.5332h34.1328zM375.467 81.0674
c4.70996 0 8.5332 3.81348 8.5332 8.53223c0 4.71973 -3.82324 8.5332 -8.5332 8.5332h-17.0664c-4.70996 0 -8.5332 -3.81348 -8.5332 -8.5332c0 -4.71875 3.82324 -8.53223 8.5332 -8.53223h17.0664z" />
    <glyph glyph-name="uniF114" unicode="&#xf114;" 
d="M421.054 33.1572c4.14258 0 7.5 -3.3584 7.50195 -7.50098v-70.5146c0 -10.5537 -8.58691 -19.1416 -19.1416 -19.1416h-200.365c-4.1416 0 -7.5 3.3584 -7.5 7.5s3.3584 7.5 7.5 7.5h29.9951l-23.543 25.9004c-2.57324 2.83203 -3.78613 6.86426 -3.24414 10.7891
c0.0107422 0.0751953 0.0224609 0.150391 0.0351562 0.225586l22.4209 132.468l-6.04102 9.09375c-3.38867 -2.40625 -5.93652 -4.65527 -10.7383 -4.65527c-4.89746 0 -9.49219 2.73633 -11.7559 7.26953l-23.6514 47.4023l-53.834 -20.8701
c-1.75 -0.748047 -30.2432 -13.4648 -30.2432 -47.2344v-156.247c0 -2.28223 1.85742 -4.14062 4.14062 -4.14062h40.3193v147.698c0 4.1416 3.35742 7.5 7.5 7.5c4.1416 0 7.5 -3.3584 7.5 -7.5v-147.696h16.1367c4.14258 0 7.5 -3.3584 7.5 -7.5s-3.35742 -7.5 -7.5 -7.5
h-71.457c-10.5547 0 -19.1416 8.58691 -19.1416 19.1416v156.245c0 44.3447 37.9678 60.4629 39.585 61.1279c0.046875 0.0195312 0.09375 0.0380859 0.140625 0.0566406l89.5713 34.7246v19.9199c-15.4551 11.2256 -25.6182 28.2559 -28.1172 47.3389
c-7.09863 0.500977 -13.6836 3.15039 -19.0605 7.77539c-7.0293 6.04395 -11.0596 14.8379 -11.0596 24.1289c0 7.40918 2.72461 14.3975 7.7334 20.0742v28.5107c0 51.2539 41.6982 92.9531 92.9521 92.9531s92.9512 -41.6992 92.9521 -92.9531v-27.7832
c4.95605 -5.73438 7.7373 -13.0947 7.7373 -20.8027c0 -9.28809 -4.03223 -18.083 -11.0586 -24.126c-5.38086 -4.62695 -11.9707 -7.2793 -19.0713 -7.7793c-2.47852 -18.7314 -12.3535 -35.1504 -26.5957 -46.2266v-21.0303l89.668 -34.7256
c0.0478516 -0.0185547 0.0957031 -0.0371094 0.142578 -0.0576172c1.61621 -0.665039 39.585 -16.7832 39.585 -61.1279v-50.7295c0 -4.14258 -3.35742 -7.5 -7.5 -7.5s-7.50098 3.3584 -7.5 7.5v50.7295c0 33.6562 -28.3027 46.4023 -30.252 47.2383l-53.876 20.8652
l-23.6494 -47.4004v-0.000976562c-2.25879 -4.52148 -6.84766 -7.26855 -11.7559 -7.26855c-4.82422 0 -7.39746 2.28418 -10.7373 4.65527l-6.04102 -9.09375l22.4229 -132.467c0.0126953 -0.0761719 0.0253906 -0.152344 0.0351562 -0.227539
c0.541016 -3.92676 -0.671875 -7.95703 -3.24414 -10.7871l-23.543 -25.9004h81.1846v147.698c0 4.1416 3.3584 7.5 7.5 7.5c4.14258 0 7.5 -3.3584 7.5 -7.5v-147.697h40.3174c2.2832 0 4.14062 1.8584 4.14062 4.14062v70.5146c0 4.1416 3.3584 7.5 7.5 7.5z
M315.375 184.931l-21.3311 8.26172c-28.2881 -34.916 -21.0371 -25.9668 -27.2354 -33.6172c14.2842 -10.1436 25.9697 -18.4453 26.5176 -18.834zM271.043 138.167l-15.0693 10.7031l-15.0693 -10.7031l5.71777 -8.60742h18.7031zM227.743 204.879l28.2305 -34.8457
l28.1816 34.7852v14.5664c-8.57617 -3.75 -18.2197 -5.8457 -28.0527 -5.8457c-9.50977 0 -19.2471 1.70312 -28.3594 5.37598v-14.0361zM340.881 306.461c0 8.1875 -5.87988 15.3369 -14.5 16.7373v-33.4775c3.24512 0.52832 6.20801 1.87695 8.66113 3.9873
c3.70996 3.19141 5.83789 7.83984 5.83887 12.7529zM184.007 289.721v33.1006c-7.85254 -1.81543 -14.5 -8.34082 -14.5 -16.3594c0 -8.11816 5.78223 -15.3262 14.5 -16.7412zM184.41 338.104c1.58105 6.28027 7.45703 10.5293 13.9082 10.0469
c29.4092 -2.1123 61.2842 6.46289 87.415 23.5312c5.48047 3.58105 12.6826 2.60156 17.0361 -2.07617c23.6758 -25.4531 23.6123 -24.0576 23.6123 -31.2949c2.32129 -0.205078 4.58203 -0.643555 6.76172 -1.30664v18.043c0 42.9834 -34.9678 77.9521 -77.9502 77.9521
c-42.9834 0 -77.9512 -34.9688 -77.9512 -77.9521v-18.5576c2.04102 0.693359 4.7793 1.34082 7.16797 1.61426zM199.008 283.816c0 -28.75 22.9023 -55.2764 57.0957 -55.2754c30.4512 0 55.2773 24.8291 55.2773 55.2764v54.4395
c-1.89551 2.32617 -7.77539 8.44141 -18.6338 20.0996c-27.4209 -17.5615 -61.3643 -27.1797 -93.7393 -25.2832v-2.46484v-46.792zM218.623 140.741c1.25684 0.892578 12.6318 8.97461 26.4854 18.8115l-27.2412 33.625l-21.293 -8.24707zM227.228 -13.7021
l28.7451 -31.623l28.7441 31.623l-21.709 128.263h-14.0713z" />
    <glyph glyph-name="uniF108" unicode="&#xf108;" 
d="M495.288 136.843h16.7119v-54.915h-16.7119v54.915zM512 356.457v-54.9072h-16.7119v54.9072h16.7119zM512 27.0283v-33.4238h-33.4238v16.7119h16.7119v16.7119h16.7119zM512 246.657v-54.915h-16.7119v54.915h16.7119zM495.288 411.371v16.7119h-16.7119v16.7119
h33.4238v-33.4238h-16.7119zM368.805 -6.39551v16.7119h54.9004v-16.7119h-54.9004zM77.5283 428.083v-16.7119h-16.7119v33.4238h33.4238v-16.7119h-16.7119zM423.669 444.795v-16.7119h-54.8926v16.7119h54.8926zM77.5283 356.457v-54.9072h-16.7119v54.9072h16.7119z
M0 -38.6533c0 12.1758 9.87305 22.0488 22.0557 22.0488c7.08301 0 13.3779 -3.33398 17.4131 -8.53516c1.73828 1.03027 3.57715 4.76465 4.7793 7.09766c4.65723 8.7207 8.9209 16.5469 14.3652 23.8301c-10.2373 14.9805 -22.6074 32.5215 -34.0029 48.7256
c-6.2959 8.94238 -11.998 22.3926 -4.20703 33.667h1.75293c16.0391 -21.8486 31.749 -44.0049 48.1104 -65.5312c16.3262 21.5264 32.0576 43.6826 48.0967 65.5312h1.73828c7.81934 -11.2744 2.08984 -24.7246 -4.19141 -33.667
c-11.418 -16.2041 -23.7666 -33.7598 -33.9746 -48.7256c5.43652 -7.29785 9.69336 -15.0957 14.3506 -23.8301c1.2373 -2.33301 3.07617 -6.03809 4.79297 -7.09766c4.02832 5.20898 10.3311 8.53516 17.4131 8.53516c12.1836 0 22.0557 -9.8584 22.0557 -22.0488
c0 -10.6162 -7.5332 -19.4873 -17.5273 -21.5762c-0.722656 -0.243164 -1.4375 -0.422852 -2.20312 -0.56543h-5.61621c-5.35059 1.00879 -11.8896 4.37109 -15.0586 9.42871c-2.37598 3.76367 -3.85645 8.76367 -5.61621 13.3135
c-5.12988 13.25 -12.6914 24.5244 -24.2666 31.1992c-11.5967 -6.68164 -19.166 -17.957 -24.2734 -31.1992c-1.77441 -4.54199 -3.27637 -9.5498 -5.61621 -13.3135c-3.18359 -5.0791 -9.72949 -8.45605 -15.0811 -9.42871h-5.61523
c-0.750977 0.150391 -1.4668 0.357422 -2.16797 0.56543c-9.97266 2.08887 -17.5059 10.9521 -17.5059 21.5762zM106.474 -38.6533c0 -6.63867 5.40137 -12.0615 12.0547 -12.0615s12.0684 5.40137 12.0684 12.0615c0 6.64648 -5.38672 12.0615 -12.0684 12.0615
c-6.68262 0 -12.0547 -5.38672 -12.0547 -12.0615zM9.97266 -38.6533c0 -6.63867 5.40137 -12.0615 12.083 -12.0615c6.64648 0 12.0547 5.40137 12.0547 12.0615c0 6.64648 -5.40137 12.0615 -12.0547 12.0615c-6.65332 -0.00683594 -12.083 -5.38672 -12.083 -12.0615z
M77.5283 136.843v-54.915h-16.7119v54.915h16.7119zM77.5283 246.657v-54.915h-16.7119v54.915h16.7119zM149.154 -6.39551v16.7119h54.915v-16.7119h-54.915zM204.069 444.795v-16.7119h-54.915v16.7119h54.915zM278.85 127.034v88.6523
c-23.5146 4.46484 -40.8916 11.8838 -52.124 22.292c-11.2314 10.4092 -16.8408 24.832 -16.8408 43.2754c0 16.4688 6.0459 31.3135 18.1289 44.5547c12.0898 13.2354 29.0234 19.9385 50.8291 20.168v21.6191h15.4814v-21.29
c21.5762 -1.5166 38.1162 -7.87012 49.6709 -19.0732c11.5537 -11.1953 17.5908 -25.9971 18.1426 -44.3623h-28.459c-0.765625 8.24219 -2.99023 15.3389 -6.66016 21.3047c-6.8252 10.9463 -17.7354 16.6768 -32.6729 17.2344v-79.1953
c25.1396 -7.06836 42.1797 -13.6709 51.1943 -19.8525c14.6367 -10.1943 21.9482 -25.2822 21.9482 -45.2422c0 -28.8516 -9.38574 -49.3047 -28.1582 -61.46c-10.3945 -6.75293 -25.4111 -11.1885 -45.0205 -13.3633v-31.543h-15.4453v31.543
c-31.5566 2.05273 -52.9541 13.2344 -64.2578 33.502c-6.1875 10.9531 -9.25 25.7549 -9.25 44.4053h28.7666c0.873047 -14.8662 3.21875 -25.6836 7.04688 -32.5225c6.7959 -12.2266 19.3447 -19.0938 37.6797 -20.6465zM294.331 126.247
c18.5078 0.879883 31.3281 7.63379 38.3457 20.3467c3.70605 6.50977 5.54492 14.0361 5.54492 22.6348c0 13.5498 -4.99414 23.8379 -14.9668 30.8838c-5.73047 4.12793 -15.3877 8.02051 -28.9307 11.7188v-85.584h0.00683594zM278.85 245.305v76.4336
c-14.3008 -0.557617 -24.5166 -4.87891 -30.5762 -13.0205c-6.07324 -8.11914 -9.10645 -16.6182 -9.10645 -25.5107c0 -10.7451 3.57617 -19.1514 10.7588 -25.2109c7.14746 -6.07422 16.8057 -10.3164 28.9238 -12.6914zM313.876 444.795v-16.7119h-54.8926v16.7119
h54.8926zM313.876 10.3164v-16.7119h-54.8926v16.7119h54.8926z" />
    <glyph glyph-name="uniF110" unicode="&#xf110;" 
d="M490.622 154.937c13.5439 -21.9053 21.3779 -47.6992 21.3721 -75.376c0 -79.2822 -64.2617 -143.56 -143.56 -143.56c-27.666 0 -53.4658 7.85547 -75.3662 21.3662c-12.0762 -1.90625 -24.4824 -2.87695 -37.082 -2.87695
c-131.168 0 -237.515 106.313 -237.515 237.519c0 12.623 1.03125 24.9502 2.90332 37.0586c-13.5303 21.9209 -21.3691 47.7207 -21.3691 75.3877c0 79.2852 64.2686 143.545 143.545 143.545c27.6729 0 53.4941 -7.83398 75.3711 -21.3701
c12.0781 1.88867 24.4795 2.92578 37.0693 2.92578c131.198 0 237.548 -106.347 237.548 -237.542c0 -12.6221 -1.00586 -24.9893 -2.91699 -37.0771zM368.773 83.9766c10.0732 14.4443 15.1279 30.7617 15.1045 48.9053c0 15.0674 -2.91016 27.8721 -8.75391 38.3555
c-5.80176 10.4668 -13.9287 19.1328 -24.3281 25.9297c-10.3164 6.81738 -22.8047 12.5391 -37.4375 17.2842c-14.6621 4.7207 -30.9785 9.05176 -48.9668 12.9297c-14.3438 3.37402 -24.6631 5.92285 -30.8828 7.68555c-6.14746 1.71875 -12.2646 4.1084 -18.2783 7.19727
c-6.01074 3.04102 -10.6875 6.64941 -14.0498 10.8125c-3.30957 4.12598 -4.95508 8.95117 -4.97168 14.6729c0.0224609 9.13086 4.82812 16.9248 14.8809 23.6416c9.99023 6.61133 23.2275 9.99219 39.7705 9.99219c17.8809 0.0380859 30.7305 -3.10547 38.5195 -9.14453
c7.99902 -6.15332 14.8779 -14.7559 20.6211 -25.7979c4.54395 -7.91309 8.74414 -13.5908 12.7441 -17.1572c4.10645 -3.68652 10.0283 -5.42871 17.5781 -5.42871c8.37402 -0.0273438 15.5449 2.98438 21.1504 8.89258c5.60645 5.89941 8.4834 12.6309 8.4834 20.0527
c0 7.98242 -2.2334 16.1621 -6.66699 24.5381c-4.4375 8.35059 -11.4443 16.3076 -20.9658 23.8525c-9.58203 7.56055 -21.5674 13.5859 -35.9443 18.1523c-14.416 4.5332 -31.4482 6.81152 -51.1377 6.81152c-24.6211 0 -46.1133 -3.42871 -64.3682 -10.2812
c-18.3203 -6.85547 -32.3701 -16.6973 -42.0811 -29.5557c-9.71484 -12.8223 -14.5684 -27.5557 -14.5684 -44.0293c0 -17.2773 4.59766 -31.8643 13.8164 -43.5996c9.2002 -11.6211 21.6133 -20.8223 37.2002 -27.5518c15.5664 -6.70605 34.7881 -12.5439 57.7715 -17.5605
c17.1162 -3.60547 30.7744 -7.02734 40.9473 -10.2549c10.1328 -3.19336 18.2988 -7.77148 24.6221 -13.7832c6.2666 -5.93359 9.32227 -13.5449 9.32227 -23.1289c0 -12.0146 -5.66797 -21.959 -17.4668 -30.1328c-11.7393 -8.09863 -27.0781 -12.2041 -46.0586 -12.2041
c-13.8682 0 -24.9521 2.0166 -33.2793 6.04883c-8.4209 4.02246 -14.9229 9.16113 -19.542 15.3164c-4.64844 6.2334 -9.01758 14.0439 -13.04 23.3887c-3.35547 8.06543 -7.45801 14.1777 -12.3496 18.3828c-4.92773 4.20508 -10.9805 6.32715 -18.0273 6.32715
c-8.60352 0 -15.8916 -2.7002 -21.5508 -8.08887c-5.60059 -5.34961 -8.47754 -11.9111 -8.47754 -19.4551c0 -12.79 4.65332 -25.9062 13.8311 -39.2998c9.1582 -13.3838 21.0713 -24.1162 35.7188 -32.1162c20.6631 -11.1729 46.8418 -16.7051 78.46 -16.7051
c26.3809 0 49.2246 4.05566 68.5527 12.2061c19.2881 8.12891 34.0498 19.4336 44.0986 33.8994z" />
    <glyph glyph-name="uniF10F" unicode="&#xf10f;" 
d="M511.756 44.0303c1.08496 -8.3125 -1.44824 -15.5391 -7.58887 -21.6807l-72.0879 -71.5439c-3.25195 -3.61328 -7.49707 -6.6875 -12.7363 -9.21484c-5.24023 -2.53027 -10.3887 -4.15625 -15.4453 -4.87793c-0.361328 0 -1.44824 -0.0927734 -3.25586 -0.273438
c-1.80371 -0.179688 -4.15234 -0.272461 -7.04297 -0.272461c-6.86816 0 -17.9805 1.1748 -33.3369 3.52441c-15.3574 2.34961 -34.1465 8.13184 -56.3672 17.3447c-22.2266 9.21387 -47.4297 23.0371 -75.6133 41.4639c-28.1846 18.4268 -58.1768 43.7227 -89.9756 75.8828
c-25.2939 24.9326 -46.252 48.7822 -62.874 71.5459c-16.6221 22.7656 -29.9912 43.8135 -40.1094 63.1455s-17.707 36.8574 -22.7656 52.5762s-8.49121 29.2686 -10.2979 40.6514c-1.80664 11.3818 -2.53027 20.3252 -2.16797 26.8301
c0.361328 6.50391 0.541992 10.1172 0.541992 10.8398c0.722656 5.05859 2.34863 10.208 4.87793 15.4473c2.5293 5.24023 5.60059 9.48535 9.21387 12.7383l72.0889 72.0879c5.05859 5.05859 10.8398 7.58887 17.3447 7.58887c4.69727 0 8.85254 -1.35547 12.4658 -4.06543
s6.68555 -6.05273 9.21484 -10.0273l57.9961 -110.03c3.25195 -5.78125 4.15527 -12.1045 2.70996 -18.9707c-1.44531 -6.86523 -4.51758 -12.6465 -9.21484 -17.3438l-26.5586 -26.5596c-0.722656 -0.722656 -1.35547 -1.89648 -1.89746 -3.52246
s-0.8125 -2.98145 -0.8125 -4.06543c1.44531 -7.58789 4.69727 -16.2607 9.75586 -26.0166c4.33594 -8.67285 11.0215 -19.2422 20.0547 -31.708c9.03418 -12.4668 21.8613 -26.8291 38.4834 -43.0898c16.2607 -16.624 30.7148 -29.54 43.3613 -38.7559
c12.6445 -9.21094 23.2178 -15.9893 31.709 -20.3252c8.49219 -4.33594 14.9961 -6.95605 19.5117 -7.85645l6.77344 -1.35645c0.722656 0 1.90039 0.272461 3.52441 0.813477c1.62598 0.542969 2.80078 1.1748 3.52344 1.89746l30.8945 31.4375
c6.50781 5.78027 14.0928 8.67188 22.7656 8.67188c6.14453 0 11.0205 -1.08398 14.6338 -3.25293h0.541016l104.608 -61.79c7.59082 -4.70117 12.1074 -10.6611 13.5537 -17.8877z" />
    <glyph glyph-name="uniF11E" unicode="&#xf11e;" 
d="M255.159 162.154c-75.665 0 -137.037 61.793 -137.037 137.037c0 75.2451 61.373 136.618 137.037 136.618c75.665 0 137.038 -60.9531 137.038 -136.618c0 -75.6641 -61.3721 -137.037 -137.038 -137.037zM255.159 400.079
c-55.4883 0 -100.887 -45.3984 -100.887 -100.887s45.3994 -100.887 100.887 -100.887s100.888 45.3975 100.888 100.886s-45.4004 100.888 -100.888 100.888zM18.0752 -51.8096c-10.0889 0 -18.0752 7.98633 -18.0752 18.0752c0 95.002 77.3467 171.928 171.928 171.928
h168.145c95.002 0 171.928 -77.3457 171.928 -171.928c0 -10.0889 -7.98633 -18.0752 -18.0752 -18.0752h-475.85zM171.928 102.043c-68.9385 0 -125.688 -51.7051 -134.516 -117.701h437.176c-8.82812 66.417 -65.5771 117.701 -134.516 117.701h-168.145z" />
    <glyph glyph-name="uniF101" unicode="&#xf101;" 
d="M255.995 448c141.162 0 256.005 -114.842 256.005 -256s-114.843 -256 -256.005 -256s-255.995 114.842 -255.995 256s114.833 256 255.995 256zM255.995 -30.4258c122.645 0 222.428 99.7812 222.427 222.426c0 122.645 -99.7812 222.425 -222.427 222.425
c-122.646 0 -222.421 -99.7793 -222.421 -222.425c0 -122.645 99.7764 -222.426 222.421 -222.426zM348.68 275.807c6.5498 6.55859 17.1797 6.55859 23.7363 0.000976562c6.55957 -6.55273 6.55957 -17.1846 0 -23.7383l-143.832 -143.831
c-0.0166016 -0.0166016 -0.0244141 -0.03125 -0.0351562 -0.0449219c-3.27637 -3.2793 -7.58203 -4.91797 -11.877 -4.91797c-4.29395 0 -8.58887 1.63867 -11.8672 4.91309l-65.2324 65.2217c-6.55957 6.55762 -6.55957 17.1816 0 23.7422
c6.55762 6.55664 17.1807 6.55371 23.7383 0.00390625l53.3613 -53.3506z" />
    <glyph glyph-name="uniF116" unicode="&#xf116;" 
d="M256 448c28.2773 0 51.2002 -22.9229 51.2002 -51.2002c-0.0283203 -28.2656 -22.9346 -51.1719 -51.2002 -51.2002c-28.2773 0 -51.2002 22.9229 -51.2002 51.2002s22.9229 51.2002 51.2002 51.2002zM256 362.667c18.8516 0 34.1338 15.2822 34.1338 34.1328
c0 18.8516 -15.2822 34.1338 -34.1338 34.1338s-34.1338 -15.2822 -34.1338 -34.1338c0 -18.8506 15.2822 -34.1328 34.1338 -34.1328zM290.134 337.066c23.5518 -0.0273438 42.6387 -19.1143 42.666 -42.666v-51.2002c0 -14.1387 -11.4609 -25.6006 -25.5996 -25.6006
h-102.4c-14.1387 0 -25.5996 11.4619 -25.5996 25.6006v51.2002c0.0273438 23.5518 19.1143 42.6387 42.666 42.666h2.01465l1.7998 -0.895508c19.0947 -9.50781 41.5439 -9.50781 60.6387 0l1.7998 0.895508h2.01465zM315.733 243.2v51.2002
c-0.00195312 13.4307 -10.3848 24.5781 -23.7822 25.5312c-22.7988 -10.5811 -49.1025 -10.5811 -71.9023 0c-13.3984 -0.953125 -23.7803 -12.1006 -23.7822 -25.5312v-51.2002c0 -4.71289 3.82129 -8.5332 8.5332 -8.5332h102.4c4.71191 0 8.5332 3.82031 8.5332 8.5332z
M435.2 166.4c28.2656 -0.0283203 51.1719 -22.9346 51.2002 -51.2002c0 -28.2773 -22.9229 -51.2002 -51.2002 -51.2002s-51.2002 22.9229 -51.2002 51.2002s22.9229 51.2002 51.2002 51.2002zM435.2 81.0664c18.8506 0 34.1328 15.2822 34.1328 34.1338
c0 18.8506 -15.2822 34.1328 -34.1328 34.1328c-18.8516 0 -34.1338 -15.2822 -34.1338 -34.1328c0 -18.8516 15.2822 -34.1338 34.1338 -34.1338zM469.333 55.4668c23.5527 -0.0283203 42.6396 -19.1152 42.667 -42.667v-51.2002
c0 -14.1387 -11.4609 -25.5996 -25.5996 -25.5996h-102.4c-14.1387 0 -25.5996 11.4609 -25.5996 25.5996v51.2002c0.0273438 23.5518 19.1143 42.6387 42.666 42.667h2.01367l1.80078 -0.853516c19.0947 -9.50586 41.5439 -9.50586 60.6377 0l1.80078 0.853516h2.01367z
M494.934 -38.4004v51.2002c-0.00195312 13.4316 -10.3838 24.5781 -23.7822 25.5322c-22.8008 -10.582 -49.1025 -10.582 -71.9023 0c-13.3984 -0.954102 -23.7803 -12.1006 -23.7822 -25.5322v-51.2002c0 -4.71191 3.82031 -8.5332 8.5332 -8.5332h102.4
c4.71191 0 8.5332 3.82129 8.5332 8.5332zM76.7998 166.4c28.2656 -0.0283203 51.1729 -22.9346 51.2002 -51.2002c0 -28.2773 -22.9229 -51.2002 -51.2002 -51.2002s-51.2002 22.9229 -51.2002 51.2002s22.9229 51.2002 51.2002 51.2002zM76.7998 81.0664
c18.8516 0 34.1338 15.2822 34.1338 34.1338c0 18.8506 -15.2822 34.1328 -34.1338 34.1328c-18.8506 0 -34.1328 -15.2822 -34.1328 -34.1328c0 -18.8516 15.2822 -34.1338 34.1328 -34.1338zM110.934 55.4668c23.5518 -0.0283203 42.6387 -19.1152 42.666 -42.667
v-51.2002c0 -14.1387 -11.4609 -25.5996 -25.5996 -25.5996h-102.4c-14.1387 0 -25.5996 11.4609 -25.5996 25.5996v51.2002c0.0273438 23.5518 19.1143 42.6387 42.667 42.667h2.01367l1.80078 -0.853516c19.0938 -9.50586 41.543 -9.50586 60.6377 0l1.80078 0.853516
h2.01367zM136.533 -38.4004v51.2002c-0.00195312 13.4316 -10.3838 24.5781 -23.7822 25.5322c-22.7998 -10.582 -49.1016 -10.582 -71.9023 0c-13.3984 -0.954102 -23.7803 -12.1006 -23.7822 -25.5322v-51.2002c0 -4.71191 3.82129 -8.5332 8.5332 -8.5332h102.4
c4.71289 0 8.5332 3.82129 8.5332 8.5332zM340.663 14.6387c1.83594 -4.33984 -0.194336 -9.34668 -4.53418 -11.1826c-44.1143 -18.6895 -93.374 -21.3701 -139.255 -7.57812l6.94531 -13.2773c2.18262 -4.18066 0.5625 -9.33789 -3.61816 -11.5205
c-4.17969 -2.18164 -9.33691 -0.561523 -11.5195 3.61816l-17.0664 32.6572c-0.09375 0.120117 -0.0429688 0.255859 -0.09375 0.375977c-0.361328 1.11719 -0.645508 2.25781 -0.853516 3.41309c-0.0351562 1.20703 0.185547 2.4082 0.648438 3.52441
c0.476562 1.1084 1.19043 2.09766 2.09082 2.90137c0.271484 0.198242 0.556641 0.376953 0.853516 0.537109c0.667969 0.514648 1.41113 0.925781 2.20117 1.2207c0.119141 0.0429688 0.212891 0.1875 0.34082 0.1875l34.1338 10.0098
c4.52441 1.3252 9.26465 -1.26953 10.5898 -5.79395c1.3252 -4.52539 -1.26953 -9.26562 -5.79395 -10.5898l-7.9873 -2.34668c40.3828 -10.7158 83.1777 -7.76953 121.711 8.37988v0c4.33496 1.84668 9.34668 -0.169922 11.1943 -4.50586
c0.00488281 -0.0107422 0.00878906 -0.0205078 0.0126953 -0.0302734zM483.899 223.633c3.33691 -3.32812 3.34473 -8.72949 0.0175781 -12.0654l-25.6006 -25.6006c-0.00390625 -0.00390625 -0.00878906 -0.00976562 -0.0146484 -0.0146484
c-3.33594 -3.3291 -8.74023 -3.32129 -12.0684 0.0146484l-25.5996 25.6006c-3.19336 3.30762 -3.19336 8.5498 0 11.8564c3.27441 3.38965 8.67578 3.48438 12.0664 0.208984l9.625 -9.625c-7.7998 66.8955 -50.8867 124.466 -112.87 150.81
c-4.33594 1.84668 -6.35352 6.85938 -4.50586 11.1953s6.85938 6.35352 11.1963 4.50586c69.0947 -29.3594 116.548 -94.2188 123.613 -168.96l12.0752 12.0742c3.33203 3.33105 8.7334 3.33105 12.0654 0zM187.486 374.11
c0.135742 -0.540039 0.217773 -1.0918 0.24707 -1.64746c-0.0693359 -0.477539 -0.177734 -0.948242 -0.324219 -1.4082c-0.0839844 -0.618164 -0.239258 -1.22559 -0.460938 -1.80859c-0.0683594 -0.0859375 -0.0683594 -0.179688 -0.0683594 -0.264648l-17.0664 -35.6094
c-1.41895 -2.9541 -4.40332 -4.83398 -7.67969 -4.83887c-1.28125 -0.000976562 -2.54492 0.291016 -3.69531 0.853516c-4.2373 2.04492 -6.01953 7.13281 -3.98535 11.375l6.16992 12.8936c-57.2617 -33.7061 -92.3994 -95.209 -92.3564 -161.655
c0 -4.71289 -3.82031 -8.5332 -8.5332 -8.5332s-8.5332 3.82031 -8.5332 8.5332c-0.0478516 75.46 41.4668 144.813 107.998 180.42l-17.6729 8.08105c-3.97949 2.00684 -5.74512 6.73828 -4.05273 10.8613c1.79004 4.35938 6.77539 6.44238 11.1357 4.65234
l34.1328 -15.5898c0.335938 -0.205078 0.65625 -0.436523 0.956055 -0.691406c0.600586 -0.307617 1.15918 -0.688477 1.66406 -1.13477c0.370117 -0.436523 0.696289 -0.908203 0.972656 -1.4082c0.300781 -0.368164 0.569336 -0.762695 0.801758 -1.17773
c0 -0.0683594 -0.0341797 -0.12793 0 -0.212891c0.0341797 -0.0859375 0.12793 -0.136719 0.12793 -0.213867c0.121094 -0.484375 0.194336 -0.977539 0.222656 -1.47559z" />
    <glyph glyph-name="uniF119" unicode="&#xf119;" 
d="M374.45 115.537c42.3838 -1.4375 76.4238 -36.3408 76.4248 -79.0693v-88.9404c0 -6.36719 -5.16309 -11.5283 -11.5293 -11.5283h-101.232h-164.228h-101.23c-6.36719 0 -11.5283 5.16113 -11.5283 11.5283v88.9404c0 42.7266 34.043 77.6289 76.4248 79.0674
c0.40625 0.0439453 59.3223 -1.71191 68.1123 61.5527c-28.6084 19.9473 -49.5889 56.4824 -55.3066 100.577c-1.13184 1.08203 -2.07324 2.39648 -2.70508 3.9375c-2.33398 5.69824 -4.30273 11.6621 -5.85059 17.7314c-7.32617 28.7295 -5.07812 58.458 6.32812 83.7119
c11.749 26.0098 31.7646 44.2471 56.3623 51.3545c5.14453 1.48535 10.5098 2.44824 15.9844 2.86621c14.3525 7.125 29.5488 10.7334 45.2119 10.7334c59.8896 0 108.61 -52.5469 108.61 -117.135c0 -16.8281 -3.23926 -33.0742 -9.62598 -48.2891
c-0.675781 -1.60938 -1.67969 -2.97461 -2.89258 -4.07129c-3.53027 -28.251 -13.4404 -54.3691 -28.8203 -75.1885c-7.90625 -10.7021 -16.8799 -19.5225 -26.6172 -26.3164c8.76367 -63.1582 67.7002 -61.4189 68.1074 -61.4629zM210.893 412.249
c-37.7168 -10.8975 -58.6338 -58.251 -47.0439 -105.95c12.4561 13.0693 21.5352 29.1855 26.0879 46.6816c1.54688 5.93848 6.69629 10.1885 12.8164 10.5781c6.09766 0.383789 11.7002 -3.15527 13.9717 -8.81348c1.46777 -3.6582 3.92383 -6.84473 7.10059 -9.21582
c3.7207 -2.77832 8.1582 -4.24609 12.833 -4.24609h78.5703c14.0391 0 26.7529 -5.77539 35.9023 -15.0674c0.0683594 1.54297 0.112305 3.0918 0.112305 4.64941c0 51.875 -38.3799 94.0781 -85.5537 94.0781c-12.7129 0 -25.0762 -3.10938 -36.7471 -9.24121
c-1.49902 -0.788086 -3.15234 -1.23535 -4.84375 -1.31152c-4.55566 -0.205078 -8.99902 -0.925781 -13.2061 -2.1416zM200.863 212.86c15.3652 -18.7734 34.9551 -29.1123 55.1543 -29.1113c46.4141 0 84.1748 52.9453 84.1748 118.023
c0 0.0810547 0.0117188 0.15918 0.0126953 0.241211c-4.27637 9.54297 -13.8584 16.2109 -24.9746 16.2109h-78.5713c-9.68457 0 -18.8906 3.05371 -26.626 8.82617c-1.24609 0.931641 -2.43945 1.92188 -3.5752 2.9707
c-7.4873 -17.8965 -18.9873 -34.0303 -33.5342 -46.9951c3.11426 -27.0938 12.9385 -51.8408 27.9395 -70.166zM227.352 165.767c-4.20801 -22.0039 -16.4307 -41.1846 -33.5107 -54.3945l60.5498 -86.2285c0.394531 -0.560547 0.943359 -0.84668 1.63086 -0.84668
s1.23633 0.285156 1.63184 0.847656l60.5352 86.208c-17.0791 13.1953 -29.3066 32.3623 -33.5273 54.3535c-9.19922 -3.30273 -18.8086 -5.01465 -28.6436 -5.01465c-9.91406 0 -19.5264 1.76855 -28.666 5.0752zM427.817 -40.9434v77.4121
c0 30.9219 -25.1562 56.0791 -56.0781 56.0791c-0.419922 0 -16.8828 0 -33.6006 7.09961l-61.6172 -87.7529c-4.68457 -6.67188 -12.3496 -10.6543 -20.5 -10.6543h-0.00195312c-8.15137 0 -15.8154 3.98242 -20.5 10.6543l-61.6289 87.7666
c-14.6572 -6.66113 -33.209 -7.1123 -33.6289 -7.1123c-30.9219 0 -56.0791 -25.1572 -56.0791 -56.0791v-77.4131h89.7031h164.228h89.7041z" />
    <glyph glyph-name="uniF10D" unicode="&#xf10d;" 
d="M232.728 368.542l-30.0889 -30.0879c-9.08887 -9.08887 -23.8232 -9.08887 -32.9121 0c-4.5459 4.54199 -6.81738 10.499 -6.81738 16.4551s2.27148 11.9121 6.81738 16.457l69.8135 69.8135c0.538086 0.538086 1.10352 1.04688 1.69141 1.5332
c0.142578 0.116211 0.295898 0.216797 0.441406 0.330078c0.453125 0.353516 0.90918 0.706055 1.38867 1.02734c0.133789 0.0898438 0.27832 0.164062 0.415039 0.250977c0.503906 0.324219 1.0127 0.639648 1.54199 0.924805
c0.100586 0.0527344 0.206055 0.0957031 0.306641 0.147461c0.573242 0.295898 1.15332 0.580078 1.75391 0.828125c0.0683594 0.0292969 0.140625 0.0498047 0.208984 0.078125c0.632812 0.255859 1.27441 0.490234 1.93066 0.69043
c0.0751953 0.0234375 0.15625 0.0371094 0.232422 0.0605469c0.646484 0.189453 1.2998 0.359375 1.96875 0.493164c0.19043 0.0390625 0.387695 0.0556641 0.580078 0.0898438c0.553711 0.0947266 1.1084 0.194336 1.67578 0.248047
c0.769531 0.0791016 1.54492 0.118164 2.32422 0.118164s1.55469 -0.0390625 2.32227 -0.118164c0.560547 -0.0537109 1.10938 -0.150391 1.65918 -0.246094c0.198242 -0.0361328 0.401367 -0.0527344 0.598633 -0.0917969
c0.662109 -0.131836 1.30957 -0.303711 1.9502 -0.492188c0.0839844 -0.0234375 0.168945 -0.0371094 0.250977 -0.0634766c0.65332 -0.198242 1.28809 -0.432617 1.91504 -0.685547c0.0742188 -0.0292969 0.152344 -0.0517578 0.224609 -0.0820312
c0.595703 -0.24707 1.17285 -0.529297 1.74219 -0.822266c0.104492 -0.0546875 0.214844 -0.0996094 0.318359 -0.154297c0.526367 -0.282227 1.03027 -0.595703 1.53027 -0.915039c0.140625 -0.0917969 0.288086 -0.167969 0.427734 -0.260742
c0.478516 -0.319336 0.930664 -0.668945 1.38281 -1.02344c0.147461 -0.115234 0.302734 -0.21582 0.446289 -0.333984c0.589844 -0.484375 1.15332 -0.993164 1.69141 -1.5332l69.8135 -69.8135c9.08887 -9.08984 9.08887 -23.8262 0 -32.9121
c-9.08887 -9.08887 -23.8252 -9.08887 -32.9121 0l-30.0889 30.0898v-269.63c0 -12.8525 -10.4199 -23.2725 -23.2725 -23.2725s-23.2725 10.4199 -23.2725 23.2725v269.63zM446.372 126.372c0 -104.971 -85.3994 -190.372 -190.372 -190.372
s-190.372 85.4014 -190.372 190.372c0 63.3398 31.3701 122.347 83.916 157.847c10.6504 7.19629 25.1162 4.39453 32.3125 -6.25586c7.19434 -10.6523 4.39551 -25.1152 -6.25586 -32.3135c-39.7158 -26.8311 -63.4277 -71.4209 -63.4277 -119.277
c0 -79.3057 64.5195 -143.826 143.827 -143.826s143.827 64.5205 143.828 143.826c0 47.998 -23.8184 92.6602 -63.7158 119.472c-10.6699 7.1709 -13.5029 21.6299 -6.33496 32.2979c7.16992 10.667 21.6299 13.5029 32.2969 6.33496
c52.7842 -35.4756 84.2979 -94.5791 84.2979 -158.104z" />
    <glyph glyph-name="uniF10B" unicode="&#xf10b;" 
d="M228.449 112.445c-3.11621 0 -5.64453 2.5293 -5.64453 5.64453c0 3.11621 2.52832 5.64551 5.64453 5.64551h66.9131c3.11621 0 5.64551 -2.5293 5.64551 -5.64551c0 -3.11523 -2.5293 -5.64453 -5.64551 -5.64453h-66.9131zM235.884 90.04
c-3.11621 0 -5.64551 2.5293 -5.64551 5.64551c0 3.11523 2.5293 5.64453 5.64551 5.64453h52.0449c3.11523 0 5.64453 -2.5293 5.64453 -5.64453c0 -3.11621 -2.5293 -5.64551 -5.64453 -5.64551h-52.0449zM256.512 168.085
c-0.0917969 -3.07129 -2.65918 -5.56348 -5.73145 -5.56348s-5.64062 2.49219 -5.73242 5.56348c0.0703125 2.37891 0.12793 6.24316 0.12793 8.62402c0 13.7168 -1.87891 35.8232 -4.19238 49.3438c-3.18848 14.6797 -12.0576 37.042 -19.7998 49.915
c-0.396484 0.703125 -0.717773 1.92969 -0.717773 2.73633c0 1.83887 1.31445 4.03809 2.93555 4.9082c0.717773 0.391602 1.96484 0.708984 2.7832 0.708984c1.84473 0 4.09473 -1.29199 5.02441 -2.88477c8.2207 -13.7178 17.625 -37.5381 20.9922 -53.1719
c2.44629 -14.1436 4.43164 -37.2725 4.43164 -51.626c0 -2.36133 -0.0537109 -6.19336 -0.121094 -8.55371zM278.814 168.085c-0.0917969 -3.07129 -2.65918 -5.56348 -5.73145 -5.56348s-5.64062 2.49219 -5.73242 5.56348
c-0.0712891 2.44727 -0.128906 6.41992 -0.128906 8.86914c0 14.2617 1.95898 37.2441 4.37402 51.3008c3.36621 15.6338 12.7705 39.4541 20.9922 53.1709c0.920898 1.59668 3.16406 2.8916 5.00684 2.8916c0.819336 0 2.06738 -0.320312 2.78516 -0.71582
c1.61719 -0.869141 2.92871 -3.06543 2.92871 -4.90137c0 -0.805664 -0.320312 -2.03027 -0.716797 -2.73242c-7.72559 -12.873 -16.5752 -35.2305 -19.7529 -49.9043c-2.30664 -13.5029 -4.17871 -35.5801 -4.17871 -49.2793
c0 -2.40137 0.0576172 -6.29883 0.128906 -8.69922h0.0253906zM224.471 273.336c-2.19629 0.674805 -3.97852 3.08691 -3.97852 5.38477c0 0.479492 0.117188 1.23926 0.261719 1.69629c0.732422 2.16309 3.18164 3.91895 5.46484 3.91895
c0.496094 0 1.28223 -0.12207 1.75391 -0.273438c3.04395 -1.02832 7.82617 -3.06738 10.6758 -4.55176l0.3125 -0.163086c5.00195 -2.47363 9.15918 -4.39844 12.2568 -1.93066l7.07617 5.63184c0.875977 0.692383 2.49316 1.25488 3.61035 1.25488
c1.49805 0 3.49512 -0.931641 4.45898 -2.0791c0.706055 -0.851562 1.2793 -2.44141 1.2793 -3.54785c0 -1.48926 -0.950195 -3.44629 -2.11914 -4.36719l-7.07617 -5.63281c-8.81152 -7.03418 -16.0205 -3.60938 -24.7041 0.661133l-0.271484 0.117188
c-2.40332 1.25879 -6.43555 2.99805 -9.00098 3.88086zM267.663 401.408c0 -3.17676 -2.57812 -5.75488 -5.75488 -5.75488s-5.75488 2.57812 -5.75488 5.75488v21.8984c0 3.17773 2.58008 5.75684 5.75781 5.75684s5.75781 -2.5791 5.75781 -5.75684v-21.8984h-0.00585938z
M295.823 284.042c0.474609 0.15332 1.26562 0.277344 1.76367 0.277344c2.28418 0 4.72852 -1.75781 5.45605 -3.92285c0.148438 -0.461914 0.269531 -1.23145 0.269531 -1.7168c0 -2.29883 -1.78613 -4.70117 -3.9873 -5.36426
c-2.56836 -0.887695 -6.6084 -2.63086 -9.01562 -3.89062l-0.261719 -0.118164c-8.66797 -4.26953 -15.8721 -7.67969 -24.7041 -0.660156l-7.0752 5.63184c-1.16992 0.921875 -2.11914 2.87793 -2.11914 4.36719c0 1.10645 0.573242 2.69629 1.2793 3.54883
c0.962891 1.14746 2.96094 2.07812 4.45898 2.07812c1.11621 0 2.7334 -0.561523 3.61035 -1.25391l7.0752 -5.6582c3.07227 -2.46777 7.24512 -0.511719 12.2578 1.93066l0.352539 0.209961c2.84473 1.48828 7.62012 3.53125 10.6602 4.56152zM334.336 341.197
c16.5703 -16.0859 30.0186 -47.8838 30.0186 -70.9775c0 -18.1719 -8.83789 -44.7275 -19.7275 -59.2754c-6.64258 -8.87988 -18.1982 -22.6416 -25.7939 -30.7207c-11.9814 -12.9941 -17.2344 -18.6875 -17.2344 -37.6934
c-0.0390625 -3.1084 -2.59375 -5.63184 -5.70312 -5.63184h-0.0517578h-67.3838h-0.0517578c-3.10938 0 -5.66895 2.52344 -5.71387 5.63184c0 18.8164 -5.36035 24.5762 -17.2539 37.376v0v0c-7.75391 8.13477 -19.5088 22.0391 -26.2402 31.0381
c-10.8711 14.5332 -19.6982 41.0576 -19.7021 59.207v0.0400391c0 11.0234 3.48633 28.209 7.78223 38.3604l0.107422 0.225586c4.32715 10.1543 14.2383 24.665 22.124 32.3887c7.99219 7.82227 22.8906 17.5801 33.2539 21.7803v0
c10.4004 4.24609 27.959 7.69238 39.1924 7.69238c23.2822 0 55.707 -13.1895 72.3779 -29.4414v0zM352.814 270.172c-0.0126953 20.4971 -11.9404 48.7373 -26.624 63.0381c-7.08594 6.9541 -20.3027 15.6318 -29.502 19.3682
c-9.23438 3.7207 -24.8086 6.74023 -34.7646 6.74023s-25.5303 -3.01953 -34.7646 -6.74023v0v0c-9.20703 -3.73145 -22.4346 -12.4072 -29.5273 -19.3633c-6.9873 -6.83984 -15.7861 -19.6855 -19.6406 -28.6719l-0.117188 -0.307617
c-3.79297 -9.0293 -6.87012 -24.3066 -6.87012 -34.1006c0 -7.8252 1.99219 -20.2061 4.44824 -27.6357c2.49023 -7.44727 8.31543 -18.6016 13.0049 -24.8994c6.53125 -8.72852 17.9316 -22.2227 25.4463 -30.1201v0c12.7998 -13.7275 19.1748 -20.5928 20.168 -39.2969
h56.1357c0.982422 18.832 7.22949 25.626 20.0957 39.5781c7.38281 7.84375 18.6084 21.2119 25.0576 29.8389c4.69043 6.29199 10.5098 17.4424 12.9893 24.8887c2.45898 7.40137 4.4541 19.7383 4.4541 27.5381v0.145508h0.0107422zM243.317 67.6455
c-3.11523 0 -5.64453 2.52832 -5.64453 5.64453s2.5293 5.64453 5.64453 5.64453h37.1768c3.11621 0 5.64453 -2.52832 5.64453 -5.64453s-2.52832 -5.64453 -5.64453 -5.64453h-37.1768zM332.528 381.373c-0.935547 -1.5459 -3.16309 -2.80176 -4.9707 -2.80176
c-0.844727 0 -2.12695 0.337891 -2.8623 0.753906c-1.58203 0.880859 -2.86523 3.06543 -2.86523 4.87598c0 0.830078 0.337891 2.08691 0.755859 2.80469l11.1514 18.9434c0.936523 1.5459 3.16309 2.7998 4.96973 2.7998c0.84375 0 2.12402 -0.336914 2.8584 -0.751953
c1.58398 -0.87793 2.86914 -3.06055 2.86914 -4.87109c0 -0.832031 -0.34082 -2.08984 -0.759766 -2.80859zM201.216 386.975c0.421875 -0.71875 0.763672 -1.97852 0.763672 -2.8125c0 -1.81152 -1.28711 -3.99219 -2.87305 -4.86719
c-0.733398 -0.415039 -2.01172 -0.750977 -2.85449 -0.750977c-1.80566 0 -4.0293 1.25391 -4.96387 2.79883l-11.1514 18.9443c-0.418945 0.717773 -0.759766 1.97656 -0.759766 2.80762c0 1.81152 1.28613 3.99414 2.86914 4.87207
c0.734375 0.415039 2.01562 0.751953 2.8584 0.751953c1.80762 0 4.03418 -1.25488 4.9707 -2.7998zM151.04 341.919c1.58203 -0.880859 2.86523 -3.06543 2.86523 -4.87598c0 -0.830078 -0.338867 -2.08691 -0.755859 -2.80469
c-0.93457 -1.54492 -3.1582 -2.79883 -4.96387 -2.79883c-0.841797 0 -2.12109 0.336914 -2.85449 0.750977l-19.3174 10.9365c-1.5918 0.875977 -2.88281 3.06055 -2.88281 4.87598c0 0.831055 0.339844 2.08691 0.757812 2.80371
c0.933594 1.54785 3.15918 2.80371 4.9668 2.80371c0.844727 0 2.12695 -0.338867 2.86133 -0.754883zM378.455 332.19c-0.734375 -0.415039 -2.01465 -0.750977 -2.8584 -0.750977c-1.80762 0 -4.0332 1.25391 -4.96973 2.79883
c-0.417969 0.717773 -0.755859 1.97461 -0.755859 2.80469c0 1.81055 1.2832 3.99512 2.86523 4.87598l19.3174 10.9365c0.734375 0.414062 2.01465 0.750977 2.8584 0.750977c1.80762 0 4.03418 -1.25391 4.96973 -2.7998
c0.417969 -0.717773 0.755859 -1.97363 0.755859 -2.80371c0 -1.81055 -1.2832 -3.99512 -2.86523 -4.87598zM202.102 247.864c0.243164 -0.575195 0.439453 -1.54883 0.439453 -2.17285c0 -2.08789 -1.57324 -4.41309 -3.51172 -5.18945
c-0.587891 -0.245117 -1.58203 -0.443359 -2.21875 -0.443359c-2.07812 0 -4.44629 1.54297 -5.28711 3.44336c-1.64258 3.80957 -3.65234 10.2002 -4.48438 14.2646c-0.838867 4.06348 -1.52637 10.7295 -1.53613 14.8789
c0.0917969 3.08398 2.6709 5.58789 5.75684 5.58789c3.08691 0 5.66602 -2.50391 5.75781 -5.58789v-0.0947266c0 -3.50781 0.568359 -9.14551 1.26953 -12.583c0.705078 -3.44824 2.40625 -8.87109 3.79883 -12.1035v0h0.015625zM202.102 297.437
c-0.839844 -1.90137 -3.20898 -3.44336 -5.28711 -3.44336c-0.636719 0 -1.63086 0.198242 -2.21875 0.442383c-1.93848 0.777344 -3.51172 3.10254 -3.51172 5.19043c0 0.624023 0.197266 1.59766 0.439453 2.17285c1.5918 3.68262 4.72461 9.35742 6.99414 12.666v0v0
c4.61914 6.72656 13.9014 15.8213 20.7207 20.3008v0c6.97363 4.5957 19.2822 9.6416 27.4736 11.2646c4.14941 0.826172 10.9502 1.5 15.1816 1.50488c3.11523 0 5.64453 -2.52832 5.64453 -5.64453s-2.5293 -5.64453 -5.64453 -5.64453h-0.0927734
c-3.57812 0 -9.33301 -0.552734 -12.8457 -1.23438c-3.50684 -0.69043 -9.03027 -2.36719 -12.3291 -3.74219c-3.17969 -1.3252 -8.09082 -3.94434 -10.9619 -5.84766v0c-5.76953 -3.82812 -13.6484 -11.5557 -17.5869 -17.249v0
c-1.93945 -2.80176 -4.61621 -7.6123 -5.97559 -10.7363zM137.728 180.312c11.8086 -0.0849609 21.3916 -9.73633 21.3916 -21.5449v-0.0410156v-0.0517578c0 -5.16406 -1.46094 -13.2842 -3.26074 -18.125l-20.0244 -53.2783l-13.4658 -20.3672v-49.6641h22.0615v-51.8867
h-110.27v51.9072h20.4805l-5.77051 29.6494l0.148438 97.792l15.3301 75.9707l18.2832 36.8643c3.15039 6.47461 11.5508 11.7295 18.752 11.7295h0.00292969c11.5869 -0.0527344 20.9912 -9.50098 20.9912 -21.0889v-0.0664062
c-0.00683594 -5.64648 -2.04102 -14.3379 -4.54102 -19.4004l-2.96973 -5.99023l2.63184 0.875977c1.74902 0.589844 4.66602 1.06934 6.51172 1.06934c3.63379 0 8.97461 -1.72656 11.9199 -3.85449c4.69434 -3.42871 8.50684 -10.9297 8.50977 -16.7432v-0.125
c0 -7.64648 -5.75977 -16.1621 -12.8564 -19.0078l-23.8848 -9.64648v-22.876l0.588867 -1.1875l11.0645 18.5957c3.43555 5.76172 11.668 10.4609 18.375 10.4912zM122.188 209.552l-14.4531 -4.91602v-13.3779l18.4316 7.44434
c1.97852 0.805664 3.58398 3.19336 3.58398 5.33008v0.0351562v0.0341797c0 3.1709 -2.57324 5.74512 -5.74414 5.74512c-0.515625 0 -1.3291 -0.132812 -1.81836 -0.294922zM129.751 2.41699l-0.0205078 -0.00585938h-80.8604v-22.2305h80.8809v22.2363zM142.121 145.741
l-0.0205078 -0.00585938c1.2998 3.46191 2.35449 9.27148 2.35547 12.9697v0.0703125c0 3.70801 -3.00977 6.7168 -6.71777 6.7168c-2.11426 0 -4.7041 -1.47656 -5.78027 -3.2959l-24.8477 -41.7529l-14.1162 28.4619v62.7812l11.71 23.6133
c1.64648 3.34082 2.98633 9.0752 2.99023 12.7998v0.0107422c0 3.46484 -2.8125 6.29492 -6.27734 6.31738c-0.00878906 0 -0.0234375 0.000976562 -0.0322266 0.000976562c-2.15332 0 -4.66211 -1.57422 -5.59961 -3.5127l-17.8486 -35.9785l-14.3613 -72.4219v-94.8994
l6.02637 -30.377h38.1025v54.1338l15.4727 23.3926zM469.504 17.2393h20.4131v-51.8867h-110.259v51.8555h22.0674v49.6641l-14.2393 21.8828l-19.251 51.7686c-1.7998 4.84082 -3.26172 12.9609 -3.26172 18.125v0.0507812
c0 0.0566406 -0.000976562 0.147461 -0.000976562 0.203125c0 11.8105 9.58594 21.3965 21.3965 21.3965c6.73047 0 14.9766 -4.69922 18.4082 -10.4893l11.0635 -18.5908l0.588867 1.18848v22.8809l-23.9053 9.6416c-7.09375 2.84668 -12.8516 11.3613 -12.8516 19.0059
c0 0.0351562 0.000976562 0.0917969 0.000976562 0.126953c0.00488281 5.81543 3.81934 13.3213 8.51465 16.7529c2.94336 2.12988 8.28223 3.85742 11.915 3.85742c1.84766 0 4.7666 -0.480469 6.5166 -1.07227l2.5957 -0.880859l-2.97461 5.9502
c-2.49805 5.06445 -4.53223 13.7578 -4.54102 19.4043v0.0664062c0 11.5879 9.4043 21.0361 20.9912 21.0898h0.0371094c7.18457 0 15.5742 -5.23926 18.7285 -11.6943l18.9336 -38.7334l14.8477 -75.5762l-0.137695 -97.792zM397.952 198.697l18.4629 -7.43945v13.3779
l-14.4902 4.91602c-0.492188 0.169922 -1.31543 0.307617 -1.83691 0.307617c-1.02148 0 -2.5166 -0.491211 -3.33887 -1.09668c-1.31836 -0.960938 -2.3877 -3.06445 -2.3877 -4.69531c0 -2.14453 1.6084 -4.55078 3.59082 -5.37012zM400.942 94.7607l15.4668 -23.3926
v-54.1289h38.0879l6.02637 30.377v94.9199l-14.3613 72.4326l-17.8486 35.9775c-0.943359 1.93652 -3.45703 3.50781 -5.61035 3.50781h-0.0214844c-3.46484 -0.0224609 -6.27734 -2.85352 -6.27734 -6.31836v-0.0107422
c0.00292969 -3.72461 1.34277 -9.45898 2.99023 -12.7998l11.709 -23.6084v-62.8066l-14.0996 -28.4668l-24.8477 41.748c-1.07715 1.81934 -3.66699 3.2959 -5.78125 3.2959c-3.70801 0 -6.7168 -3.00977 -6.7168 -6.71777v-0.0703125v-0.0556641
c0 -3.67969 1.04785 -9.46289 2.33984 -12.9082zM475.213 -19.8242h0.00488281v22.2354h-80.8604v-22.2354h80.8555z" />
    <glyph glyph-name="uniF11C" unicode="&#xf11c;" 
d="M452.267 345.6v0v-401.066c0 -5.12012 -3.41309 -8.5332 -8.5332 -8.5332h-375.467c-5.12012 0 -8.5332 3.41309 -8.5332 8.5332v494.934c0 5.12012 3.41309 8.5332 8.5332 8.5332h281.6v0c0.853516 0 1.70703 -0.853516 2.56055 -0.853516h0.853516
c0.853516 -0.853516 1.70605 -0.853516 2.55957 -1.70605l93.8672 -93.8672c0.852539 -0.853516 0.852539 -1.70703 1.70605 -2.55957v-0.853516c0.853516 -0.853516 0.853516 -1.70703 0.853516 -2.56055zM423.253 354.134l-64.8525 64.8525v-64.8525h64.8525z
M76.7998 -46.9336h358.4v384h-85.334c-5.11914 0 -8.5332 3.41406 -8.5332 8.5332v85.334h-264.533v-477.867zM273.066 200.533c-5.12012 0 -8.5332 3.41309 -8.5332 8.5332v93.8672c0 5.12012 3.41309 8.5332 8.5332 8.5332c52.0537 0 93.8672 -41.8135 93.8672 -93.8672
c0 -1.70605 0 -3.41309 -0.853516 -5.11914v-3.41406c0 -5.12012 -3.41309 -8.5332 -8.5332 -8.5332h-84.4805zM281.6 293.547v-75.9473h68.2666c0 39.2539 -29.8662 71.6807 -68.2666 75.9473zM238.934 277.333c5.12012 0 8.5332 -3.41309 8.5332 -8.5332v-85.333h75.9463
c2.56055 0 5.12012 -0.853516 5.97363 -2.56055c1.70703 -1.70605 2.55957 -4.2666 2.55957 -6.82617c-5.11914 -47.7871 -44.373 -84.4805 -93.0127 -84.4805c-52.0537 0 -93.8672 41.8135 -93.8672 93.8672c0 52.0527 41.8135 93.8662 93.8672 93.8662zM313.173 166.4
h-74.2393c-5.12012 0 -8.5332 3.41309 -8.5332 8.5332v84.4795c-38.4004 -4.2666 -68.2666 -36.6934 -68.2666 -75.9463c0 -42.667 34.1328 -76.7998 76.7998 -76.7998c35.8398 0 66.5596 24.7461 74.2393 59.7334zM119.467 388.267v17.0664h59.7334v-17.0664h-59.7334z
M119.467 354.134v17.0664h128v-17.0664h-128zM119.467 29.8662v17.0674h170.667v-17.0674h-170.667zM119.467 -12.7998v17.0664h256v-17.0664h-256zM324.267 29.8662v17.0674h51.2002v-17.0674h-51.2002z" />
    <glyph glyph-name="uniF112" unicode="&#xf112;" 
d="M341.92 389.416c69.5732 -69.5898 77.0234 -177.902 22.6885 -255.975c7.77246 -1.64258 15.2051 -5.41797 21.2158 -11.4121l113.748 -113.781c16.5596 -16.5088 16.5596 -43.2949 0 -59.8535c-16.4922 -16.543 -43.2773 -16.543 -59.8545 0l-113.747 113.747
c-6.04492 6.04492 -9.80371 13.4609 -11.4463 21.2324c-78.0557 -54.2998 -186.385 -46.8496 -255.94 22.6885c-78.0898 78.123 -78.0898 205.23 0 283.354c78.1064 78.1064 205.23 78.1064 283.336 0zM306.008 141.975c58.3135 58.3135 58.3135 153.199 0 211.513
c-58.3125 58.2959 -153.216 58.2959 -211.512 0c-58.2793 -58.3135 -58.2793 -153.199 0 -211.513c58.2959 -58.3125 153.199 -58.3125 211.512 0z" />
    <glyph glyph-name="uniF106" unicode="&#xf106;" 
d="M501.333 170.662c-29.4072 0 -53.335 -23.9277 -53.334 -53.334c0 -29.4072 23.9277 -53.335 53.335 -53.335c5.89551 0 10.667 -4.77148 10.667 -10.668v-53.334c0 -23.5332 -19.1367 -42.6689 -42.668 -42.6689h-362.679c-23.5322 0 -42.668 19.1367 -42.668 42.6689
v53.334c0 5.89648 4.77051 10.668 10.667 10.668c23.7246 0 43.6445 15.6777 50.5498 37.1377c-6.9248 22.1914 -27.2646 37.5312 -50.5498 37.5312c-9.55273 0 -18.7617 -2.63477 -27.3662 -7.82324c-2.45898 -1.47949 -5.41699 -1.90723 -8.1875 -1.1875
c-2.78125 0.717773 -5.15625 2.53125 -6.58398 5.03125l-26.875 46.9805c-11.6357 20.3135 -4.68848 46.418 15.5 58.168l311.07 181.101c9.77148 5.68652 21.1885 7.21875 32.1055 4.30176c10.9697 -2.9375 20.1367 -10.0107 25.8135 -19.9062l25.9912 -45.3975
c1.41699 -2.49023 1.78125 -5.44824 1 -8.19824c-0.771484 -2.76172 -2.63574 -5.09473 -5.14648 -6.46973c-17.2607 -9.42676 -27.9795 -27.2822 -27.9795 -46.5957c0 -7.46973 1.9834 -14.5479 5.0459 -21.333h80.291c23.5322 0 42.668 -19.1367 42.668 -42.6689v-53.334
c0 -5.89648 -4.77148 -10.668 -10.667 -10.668zM342.953 402.492l-214.994 -125.159h238.001c-2.10645 6.92676 -3.29785 14.0986 -3.29785 21.333c0 23.4902 11.2402 45.4189 29.918 59.4287l-20.9697 36.627c-2.82324 4.92676 -7.36523 8.44824 -12.8135 9.90625
c-5.35352 1.45898 -11.0215 0.677734 -15.8438 -2.13574zM74.6523 159.995c17.1104 0 33.1123 -5.89355 45.8857 -15.9434c-9.26172 15.832 -26.2578 26.6094 -45.8848 26.6094c-5.89648 0 -10.667 4.77148 -10.667 10.668v53.334
c0 1.97461 0.322266 3.86035 0.583008 5.76465l-32.6992 -19.0361c-10.083 -5.875 -13.5527 -18.9473 -7.70801 -29.1357l21.833 -38.1777c9.15625 3.89551 18.8965 5.91699 28.6572 5.91699zM426.663 117.328c0 37.5527 27.8662 68.7207 64.002 73.9082v43.4277
c0 11.7607 -9.57324 21.334 -21.333 21.334h-256.009v-24.001c0 -5.89648 -4.77051 -10.667 -10.667 -10.667s-10.667 4.77051 -10.667 10.667v24.001h-85.3359c-11.7607 0 -21.334 -9.57324 -21.334 -21.334v-43.4277c36.1367 -5.1875 64.002 -36.3555 64.002 -73.9082
c0 -37.5537 -27.8652 -68.7207 -64.002 -73.9092v-43.4277c0 -11.7607 9.57324 -21.334 21.334 -21.334h85.3359v18.668c0 5.89551 4.77051 10.667 10.667 10.667s10.667 -4.77148 10.667 -10.667v-18.668h256.009c11.7598 0 21.333 9.57324 21.333 21.334v43.4277
c-36.1357 5.1875 -64.002 36.3555 -64.002 73.9092zM202.656 178.662c5.89648 0 10.667 -4.77051 10.667 -10.667v-21.334c0 -5.89551 -4.77051 -10.667 -10.667 -10.667s-10.667 4.77148 -10.667 10.667v21.334c0 5.89648 4.77051 10.667 10.667 10.667zM202.656 93.3271
c5.89648 0 10.667 -4.77148 10.667 -10.668v-21.333c0 -5.89648 -4.77051 -10.668 -10.667 -10.668s-10.667 4.77148 -10.667 10.668v21.333c0 5.89648 4.77051 10.668 10.667 10.668zM401.059 211.194c4.71875 -3.53125 5.67676 -10.2178 2.13477 -14.9258
l-128.004 -170.673c-2.09375 -2.80176 -5.29199 -4.27148 -8.54199 -4.27148c-2.22949 0 -4.46875 0.697266 -6.38574 2.13574c-4.71777 3.53125 -5.67676 10.2188 -2.13477 14.9268l128.004 170.673c3.53125 4.70801 10.2295 5.64551 14.9277 2.13477zM287.993 127.994
c-17.9482 0 -32.001 18.7402 -32.001 42.668s14.0527 42.6689 32.001 42.6689s32.001 -18.7412 32.001 -42.6689s-14.0527 -42.668 -32.001 -42.668zM287.993 191.996c-4.35449 0 -10.668 -8.3125 -10.668 -21.334c0 -13.0205 6.31348 -21.333 10.668 -21.333
c4.35352 0 10.667 8.31152 10.667 21.333c0 13.0205 -6.31348 21.334 -10.667 21.334zM373.329 106.66c17.9482 0 32.001 -18.7402 32.001 -42.668s-14.0527 -42.6689 -32.001 -42.6689c-17.9492 0 -32.001 18.7412 -32.001 42.6689s14.0518 42.668 32.001 42.668z
M373.329 42.6582c4.35352 0 10.667 8.31348 10.667 21.334s-6.31348 21.333 -10.667 21.333c-4.35449 0 -10.668 -8.3125 -10.668 -21.333s6.31348 -21.334 10.668 -21.334z" />
    <glyph glyph-name="uniF10C" unicode="&#xf10c;" 
d="M364.733 358.354c64.3311 -34.8887 116.542 -122.599 116.542 -195.781c0 -122.941 -99.7793 -222.72 -222.721 -222.72s-222.72 99.7783 -222.72 222.72c0 72.8672 51.8779 160.396 115.799 195.377c2.95703 1.62598 8.09668 2.94629 11.4717 2.94629
c13.1426 0 23.8096 -10.667 23.8096 -23.8105c0 -7.77148 -5.52734 -17.1191 -12.3389 -20.8633c-50.2373 -27.4814 -91.0107 -96.2598 -91.0107 -153.523c0 -96.5947 78.3965 -174.991 174.991 -174.991c96.5957 0 174.992 78.3965 174.992 174.991
c0 57.5117 -41.0342 126.432 -91.5947 153.841c-6.85449 3.73438 -12.4189 13.1006 -12.4189 20.9072c0 13.1426 10.667 23.8086 23.8086 23.8086c3.34766 0 8.4502 -1.2998 11.3896 -2.90137zM258.56 226.56h-0.0302734c-13.1416 0 -23.8174 10.666 -23.8281 23.8086
v158.597c0.189453 12.9805 10.8799 23.5146 23.8613 23.5146s23.6719 -10.5342 23.8623 -23.5146v-158.597c-0.0117188 -13.1426 -10.6865 -23.8086 -23.8291 -23.8086h-0.0361328z" />
    <glyph glyph-name="uniF11D" unicode="&#xf11d;" 
d="M412.716 109.823c13.6426 0 24.7451 -11.1025 24.7451 -24.7451v-32.9932c0 -13.6416 -11.1025 -24.7441 -24.7451 -24.7441v-30.3867l-156.716 -60.9541l-156.716 60.9541v30.3867c-13.6426 0 -24.7451 11.1025 -24.7451 24.7441v32.9932
c0 13.6426 11.1025 24.7451 24.7451 24.7451v53.2998l22.624 -8.80078l0.495117 1.2041c8.62793 13.4111 22.5596 22.7324 38.2393 25.5781l54.1162 9.83984v4.27246c-20.2412 11.7451 -35.0547 31.8047 -39.6816 55.5107
c-14.9961 3.10156 -26.3037 16.4053 -26.3037 32.3076v63.4043c0 56.0059 45.5625 101.561 101.56 101.561c27.1289 0 52.6328 -10.5576 71.8174 -29.7432l4.12402 -4.12402c21.875 -6.53223 36.9521 -26.6084 36.9521 -49.6299v-81.4678
c0 -15.9023 -11.3076 -29.2061 -26.3037 -32.3076c-4.61816 -23.7061 -19.4404 -43.7568 -39.6816 -55.5107v-4.27246l54.125 -9.84863c15.6963 -2.8457 29.6357 -12.1826 38.2549 -25.6025l0.536133 -0.972656l0.0664062 -0.148438l22.4922 8.75098v-53.2998z
M312.698 171.363l-18.0469 -54.1494l79.8018 31.0293c-6.21094 8.64453 -15.5234 14.7148 -26.04 16.6289zM231.956 187.653l24.0439 -18.0303l24.0439 18.0303c-7.61328 -2.32617 -15.6807 -3.59668 -24.0439 -3.59668s-16.4307 1.27051 -24.0439 3.59668zM243.446 158.422
l-22.501 16.875l-5.25391 -0.948242l10.9199 -32.7539zM291.055 175.289l-22.501 -16.876l16.835 -16.8262l10.9199 32.7539zM338.482 268.832c4.90723 2.8623 8.24805 8.125 8.24805 14.2031c0 6.0791 -3.34082 11.3418 -8.24805 14.2041v-28.4072zM173.518 268.832
v28.4072c-4.90723 -2.8623 -8.24805 -8.125 -8.24805 -14.2041c0 -6.07812 3.34082 -11.3408 8.24805 -14.2031zM173.518 324.276h8.24805c19.0703 0 37.002 7.42383 50.4961 20.9092l16.3887 16.3975l6.55762 -8.75879c13.4033 -17.874 34.7666 -28.5479 57.1191 -28.5479
h26.1553v-9.41895c2.93652 -0.758789 5.69141 -1.92188 8.24805 -3.41504v53.0605c0 16.2324 -10.9951 30.3203 -26.749 34.2549l-2.21875 0.544922l-7.27539 7.2832c-16.0674 16.0674 -37.4385 24.918 -60.1543 24.918c-46.9072 0 -85.0635 -38.165 -85.0635 -85.0645
v-34.9971c2.55664 1.49316 5.31152 2.64746 8.24805 3.41504v9.41895zM190.015 266.539c0 -36.3828 29.6025 -65.9854 65.9854 -65.9854s65.9854 29.6025 65.9854 65.9854v41.2412h-9.6582c-24.835 0 -48.6562 10.6982 -65.1943 28.9512l-3.20801 -3.20801
c-14.6494 -14.6406 -33.5459 -23.4746 -53.9102 -25.3633v-41.6211zM163.587 164.872c-10.5166 -1.91406 -19.8447 -7.96777 -26.0557 -16.6211l79.8174 -31.0371l-18.0469 54.1494zM91.0352 52.085c0 -4.55273 3.7041 -8.24805 8.24902 -8.24805
c13.6426 0 24.7441 11.1025 24.7441 24.7451s-11.1016 24.7441 -24.7441 24.7441c-4.54492 0 -8.24902 -3.69531 -8.24902 -8.24805v-32.9932zM247.752 -43.082v130.767l-131.972 51.3203v-32.6787c14.542 -6.38477 24.7451 -20.877 24.7451 -37.7441
c0 -16.8682 -10.2031 -31.3604 -24.7451 -37.7441v-22.6084zM223.263 114.904l32.7373 -12.7275l32.7373 12.7354l-32.7373 32.7373zM396.22 8.23828v22.5996c-14.542 6.38379 -24.7451 20.876 -24.7451 37.7441c0 16.8672 10.2031 31.3594 24.7451 37.7441v32.6787
l-131.972 -51.3203v-130.759zM420.965 52.085v32.9932c0 4.55273 -3.7041 8.24805 -8.24902 8.24805c-13.6426 0 -24.7441 -11.1016 -24.7441 -24.7441s11.1016 -24.7451 24.7441 -24.7451c4.54492 0 8.24902 3.69531 8.24902 8.24805z" />
    <glyph glyph-name="uniF103" unicode="&#xf103;" 
d="M446.208 70.0586c3.24219 3.15723 8.95996 3.07227 12.1172 0c1.53613 -1.6123 2.47461 -3.83984 2.47461 -6.05859s-0.938477 -4.4375 -2.47461 -6.05859c-1.62109 -1.53613 -3.83984 -2.47461 -6.05859 -2.47461s-4.44629 0.938477 -6.05859 2.47461
c-1.62109 1.62109 -2.47461 3.83984 -2.47461 6.05859s0.929688 4.44629 2.47461 6.05859zM201.711 87.3555c12.4326 -6.2373 20.1553 -18.7559 20.1553 -32.665v-10.6162c0 -6.85156 0 -22.8945 -85.333 -22.8945s-85.333 16.043 -85.333 22.8945v11.2988
c0 13.3799 7.28711 25.668 19.0293 32.0762l32.1709 15.8467v3.20898c-13.8926 7.57715 -23.6631 20.0781 -29.1162 37.248c-8.26855 4.38574 -13.5508 12.9189 -13.5508 22.4932v8.5332c0 7.83398 3.61816 15.1299 9.67676 19.9424
c1.15234 8.09863 3.15723 15.668 5.98145 22.5801c1.26367 3.09766 2.33887 5.39258 3.20898 7.27832c2.3125 4.97559 2.3125 4.97559 0.666016 13.2949c-0.811523 4.07031 -1.34863 7.79102 -1.70703 10.9658c-0.538086 4.60742 1.97949 8.8916 6.25488 10.6494
c4.2666 1.77441 9.08789 0.50293 11.9551 -3.14844c1.68945 -2.15039 4.32617 -4.4375 7.8252 -6.79297c9.34375 -6.29785 20.1299 -6.89453 27.5117 -6.32324c1.76562 0.136719 3.5752 0.212891 5.42676 0.212891c39.1426 0 61.6533 -16.3496 66.9785 -48.6055
c6.14355 -4.8125 9.82129 -12.1426 9.82129 -20.0537v-8.5332c0 -9.57422 -5.28223 -18.1074 -13.5508 -22.4854c-5.45215 -17.1602 -15.2236 -29.6611 -29.1152 -37.248v-3.30176zM204.8 46.0029v8.6875c0 7.41504 -4.12109 14.0967 -10.7607 17.416l-0.0595703 0.0341797
l-32.1533 16.418c-5.07715 2.60254 -8.22656 7.75684 -8.22656 13.4404v15.4619l5.1543 2.22754c12.9453 5.56348 21.3594 16.2051 25.7285 32.5459l1.21973 4.54004l4.48926 1.39941c3.5752 1.10938 6.0752 4.42871 6.0752 8.07227v8.5332
c0 3.12402 -1.77441 5.99121 -4.625 7.50098l-3.97656 2.09082l-0.529297 4.46289c-3.0459 25.9668 -18.6455 37.5381 -50.5938 37.5381c-1.39062 0 -2.74805 -0.0595703 -4.07031 -0.170898c-13.0986 -0.998047 -25.1475 1.45117 -35.1748 7.18555
c0.725586 -6.5791 -0.324219 -9.78809 -3.2168 -16.0088c-0.785156 -1.69824 -1.74902 -3.77148 -2.88477 -6.54492c-2.67871 -6.53613 -4.46289 -13.918 -5.30762 -21.9307l-0.46875 -4.50586l-4.00195 -2.13281c-2.85059 -1.51953 -4.61719 -4.38672 -4.61719 -7.48438
v-8.5332c0 -3.63477 2.5 -6.96289 6.07617 -8.07227l4.48828 -1.39941l1.2207 -4.54004c4.36816 -16.3408 12.7822 -26.9824 25.7275 -32.5459l5.1543 -2.22754v-15.3936c0 -5.72559 -3.31934 -11.042 -8.45703 -13.5508l-32.9209 -16.2139
c-5.93066 -3.24219 -9.82227 -9.7959 -9.82227 -16.9219v-9.37793c5.31641 -3.2334 26.9736 -7.74805 68.2666 -7.74805s62.9502 4.51465 68.2666 7.74805zM264.533 200.38c-4.71875 0 -8.5332 3.81445 -8.5332 8.5332s3.81445 8.5332 8.5332 8.5332h85.333
c4.71973 0 8.53418 -3.81445 8.53418 -8.5332s-3.81445 -8.5332 -8.53418 -8.5332h-85.333zM273.066 72.3799c4.71875 0 8.5332 -3.81445 8.5332 -8.5332s-3.81445 -8.5332 -8.5332 -8.5332h-8.5332c-4.71875 0 -8.5332 3.81445 -8.5332 8.5332
s3.81445 8.5332 8.5332 8.5332h8.5332zM324.267 72.3799c4.71875 0 8.5332 -3.81445 8.5332 -8.5332s-3.81445 -8.5332 -8.5332 -8.5332h-17.0664c-4.71875 0 -8.5332 3.81445 -8.5332 8.5332s3.81445 8.5332 8.5332 8.5332h17.0664zM366.934 72.3799
c4.71875 0 8.5332 -3.81445 8.5332 -8.5332s-3.81445 -8.5332 -8.5332 -8.5332h-8.5332c-4.71973 0 -8.53418 3.81445 -8.53418 8.5332s3.81445 8.5332 8.53418 8.5332h8.5332zM418.134 72.3799c4.71875 0 8.5332 -3.81445 8.5332 -8.5332s-3.81445 -8.5332 -8.5332 -8.5332
h-17.0674c-4.71875 0 -8.5332 3.81445 -8.5332 8.5332s3.81445 8.5332 8.5332 8.5332h17.0674zM452.267 166.246c4.71875 0 8.5332 -3.81445 8.5332 -8.5332s-3.81445 -8.5332 -8.5332 -8.5332h-187.733c-4.71875 0 -8.5332 3.81445 -8.5332 8.5332
s3.81445 8.5332 8.5332 8.5332h187.733zM452.267 115.047c4.71875 0 8.5332 -3.81445 8.5332 -8.53418c0 -4.71875 -3.81445 -8.5332 -8.5332 -8.5332h-187.733c-4.71875 0 -8.5332 3.81445 -8.5332 8.5332c0 4.71973 3.81445 8.53418 8.5332 8.53418h187.733z
M472.081 328.533c22.0078 0 39.9189 -17.9111 39.9189 -39.9189v-278.562c0 -22.0078 -17.9111 -39.9189 -39.9102 -39.9189h-432.171c-22.0078 0 -39.9189 17.9111 -39.9189 39.9102v278.57c0 22.0078 17.9111 39.9189 39.9189 39.9189h156.348v65.5957
c0 10.8887 8.84961 19.7373 19.7295 19.7373h80c10.8877 0 19.7373 -8.84863 19.7373 -19.7373v-65.5957h156.348zM213.333 394.129v-65.5957v-48.5371c0 -1.45996 1.20312 -2.66309 2.66309 -2.66309h80c1.46777 0 2.6709 1.20312 2.6709 2.66309v48.5371v65.5957
c0 1.46777 -1.20312 2.6709 -2.6709 2.6709h-80c-1.45996 0 -2.66309 -1.20312 -2.66309 -2.6709zM494.934 10.0527v278.562c0 12.6035 -10.249 22.8525 -22.8525 22.8525h-156.348v-31.4707c0 -10.8799 -8.84961 -19.7295 -19.7373 -19.7295h-80
c-10.8799 0 -19.7295 8.84961 -19.7295 19.7295v31.4707h-156.348c-12.6035 0 -22.8525 -10.249 -22.8525 -22.8525v-278.562c0 -12.6045 10.249 -22.8525 22.8525 -22.8525h432.162c12.6035 0 22.8525 10.248 22.8525 22.8525zM256 320
c-18.8242 0 -34.1338 15.3086 -34.1338 34.1338c0 18.8242 15.3096 34.1328 34.1338 34.1328s34.1338 -15.3086 34.1338 -34.1328c0 -18.8252 -15.3096 -34.1338 -34.1338 -34.1338zM256 371.2c-9.41211 0 -17.0664 -7.6543 -17.0664 -17.0664
c0 -9.41309 7.6543 -17.0674 17.0664 -17.0674s17.0664 7.6543 17.0664 17.0674c0 9.41211 -7.6543 17.0664 -17.0664 17.0664z" />
    <glyph glyph-name="uniF113" unicode="&#xf113;" 
d="M442.808 211.501c40.2188 -13.8789 68.9902 -52.0713 69.1924 -97.0508v-6.68652c0 -0.202148 -0.202148 -0.404297 -0.405273 -0.404297h-124.707c0.708984 -5.57227 1.11426 -11.3467 1.11426 -17.1211v-6.88867c0 -29.7842 -24.1113 -53.8945 -53.8955 -53.8945
h-157.023c-29.7842 0 -53.8955 24.1104 -53.8955 53.8945v6.88867c0 5.77441 0.405273 11.5488 1.11523 17.1211h-123.897c-0.203125 0 -0.405273 0.202148 -0.405273 0.404297v6.68652c0 44.8789 28.8721 83.0713 69.0908 96.9502
c-15.0947 10.5352 -24.9219 28.0615 -24.9219 47.8164c0 32.3164 26.1377 58.4531 58.4541 58.4531s58.4531 -26.1367 58.4531 -58.4531c0 -19.7549 -9.92773 -37.2812 -24.9209 -47.8164c12.6631 -4.35645 24.2119 -11.1436 34.1396 -19.8564
c13.5752 11.4473 29.4805 20.2617 46.9053 25.5293c-21.4775 12.9668 -35.7617 36.5713 -35.7617 63.417c0 40.8271 33.127 74.0547 74.0547 74.0547s74.0547 -33.127 74.0547 -74.0547c0 -26.8457 -14.3848 -50.4502 -35.7607 -63.417
c17.627 -5.26758 33.7344 -14.1826 47.4111 -25.833c9.92773 8.91504 21.6797 15.8037 34.5449 20.2607c-15.0938 10.5361 -24.9209 28.0625 -24.9209 47.8164c0 32.3174 26.1367 58.4541 58.4531 58.4541c32.3174 0 58.4541 -26.1367 58.4541 -58.4541
c0 -19.7539 -9.92773 -37.2803 -24.9219 -47.8164zM367.031 259.419c0 -23.0977 18.4375 -41.8389 41.4346 -42.2441h0.80957h0.810547c22.8955 0.505859 41.4346 19.248 41.4346 42.2441c0 23.3008 -18.9443 42.2451 -42.2451 42.2451
c-23.2998 0 -42.2441 -18.9443 -42.2441 -42.2451zM197.445 280.49c0 -30.7969 24.2119 -56.0215 54.5029 -57.7441h3.34277h3.34277c30.291 1.72266 54.5029 26.9473 54.5029 57.7441c0 31.9121 -25.9346 57.8457 -57.8457 57.8457s-57.8457 -25.9336 -57.8457 -57.8457z
M60.0742 259.419c0 -23.0977 18.5391 -41.8389 41.4346 -42.2441h0.810547h0.810547c22.8945 0.505859 41.4336 19.248 41.4336 42.2441c0 23.3008 -18.9443 42.2451 -42.2441 42.2451c-23.3008 0 -42.2451 -18.9443 -42.2451 -42.2451zM127.139 123.669
c5.57227 21.4775 16.4121 40.9277 31 56.7314c-14.8926 12.6631 -34.1406 20.4639 -55.2119 20.5654h-0.607422h-0.608398c-44.2705 -0.303711 -80.7402 -34.1406 -85.2998 -77.2969h110.728zM371.59 83.3496v6.88867c0 62.9111 -50.2471 114.374 -112.753 116.198
c-1.11426 -0.101562 -2.33008 -0.101562 -3.44434 -0.101562c-1.11523 0 -2.33008 0 -3.44434 0.101562c-62.5059 -1.82422 -112.754 -53.2871 -112.754 -116.198v-6.88867c0 -20.7676 16.918 -37.6855 37.6855 -37.6855h157.024c20.7676 0 37.6855 16.918 37.6855 37.6855z
M383.646 123.669h111.538c-4.55957 43.1562 -41.0293 76.9932 -85.2998 77.2969h-0.608398h-0.607422c-21.2744 -0.203125 -40.7246 -8.00293 -55.7178 -20.9707c14.4863 -15.8037 25.123 -34.9502 30.6953 -56.3262z" />
    <glyph glyph-name="uniF11F" unicode="&#xf11f;" 
d="M400 260c33.084 0 60 -26.916 60 -60v-204c0 -33.084 -26.916 -60 -60 -60h-288c-33.084 0 -60 26.916 -60 60v204c0 33.084 26.916 60 60 60h35.9629v82.2305c0 58.3213 48.4492 105.77 108 105.77s108 -47.4482 108 -105.77v-82.2305h36.0371zM187.963 342.23v-82.2305
h136v82.2305c0 36.2656 -30.5049 65.7695 -68 65.7695s-68 -29.5039 -68 -65.7695zM420 -4v204c0 11.0283 -8.97168 20 -20 20h-288c-11.0283 0 -20 -8.97168 -20 -20v-204c0 -11.0283 8.97168 -20 20 -20h288c11.0283 0 20 8.97168 20 20zM256 162
c20.4346 0 37 -16.5654 37 -37c0 -13.0801 -6.79297 -24.5654 -17.0371 -31.1445v-43.8555c0 -11.0449 -8.95508 -20 -20 -20c-11.0459 0 -20 8.95508 -20 20v43.9023c-10.2031 6.58789 -16.9629 18.0498 -16.9629 31.0977c0 20.4346 16.5654 37 37 37z" />
    <glyph glyph-name="uniF104" unicode="&#xf104;" 
d="M332.066 448l124.467 -124.467v-387.533h-401.066v512h276.6zM337.066 418.867v-90.334h90.334zM72.5332 -46.9336h366.934v358.4h-119.467v119.467h-247.467v-477.867zM362.667 268.8c4.70996 0 8.5332 -3.81445 8.5332 -8.5332s-3.82324 -8.5332 -8.5332 -8.5332
h-136.533c-4.71094 0 -8.53418 3.81445 -8.53418 8.5332s3.82324 8.5332 8.53418 8.5332h136.533zM195.2 292.531c3.67773 2.94434 9.05371 2.35547 11.9893 -1.33105c2.94434 -3.67773 2.35547 -9.0459 -1.33105 -11.998l-42.667 -34.1338
c-1.56152 -1.25391 -3.44727 -1.86816 -5.3252 -1.86816c-2.19238 0 -4.37695 0.844727 -6.03223 2.5l-17.0674 17.0664c-3.33594 3.33691 -3.33594 8.72949 0 12.0664c3.33691 3.33691 8.72949 3.33691 12.0664 0l11.665 -11.665zM362.667 174.934
c4.70996 0 8.5332 -3.81445 8.5332 -8.5332c0 -4.71973 -3.82324 -8.53418 -8.5332 -8.53418h-136.533c-4.71094 0 -8.53418 3.81445 -8.53418 8.53418c0 4.71875 3.82324 8.5332 8.53418 8.5332h136.533zM195.2 198.664c3.67773 2.94434 9.05371 2.35547 11.9893 -1.33105
c2.94434 -3.67773 2.35547 -9.04492 -1.33105 -11.9971l-42.667 -34.1338c-1.56152 -1.25488 -3.44727 -1.86914 -5.3252 -1.86914c-2.19238 0 -4.37695 0.844727 -6.03223 2.50098l-17.0674 17.0664c-3.33594 3.33594 -3.33594 8.72949 0 12.0664
c3.33691 3.33594 8.72949 3.33594 12.0664 0l11.665 -11.665zM362.667 81.0664c4.70996 0 8.5332 -3.81445 8.5332 -8.5332s-3.82324 -8.5332 -8.5332 -8.5332h-136.533c-4.71094 0 -8.53418 3.81445 -8.53418 8.5332s3.82324 8.5332 8.53418 8.5332h136.533zM195.2 104.798
c3.67773 2.94434 9.05371 2.35547 11.9893 -1.33105c2.94434 -3.67773 2.35547 -9.0459 -1.33105 -11.998l-42.667 -34.1328c-1.56152 -1.25488 -3.44727 -1.86914 -5.3252 -1.86914c-2.19238 0 -4.37695 0.844727 -6.03223 2.5l-17.0674 17.0664
c-3.33594 3.33691 -3.33594 8.73047 0 12.0664c3.33691 3.33691 8.72949 3.33691 12.0664 0l11.665 -11.665z" />
    <glyph glyph-name="uniF11B" unicode="&#xf11b;" 
d="M300.439 274.14c22.0723 -9.47363 37.4922 -31.4443 37.4922 -56.9434h-16.5293c0 25.1963 -20.459 45.6562 -45.5547 45.6562c-10.0781 0 -19.8545 -3.42676 -27.7158 -9.47363c19.5527 -16.6299 32.0498 -41.4229 32.0498 -69.1387h-16.5283
c0 40.9189 -33.2588 74.1777 -74.1777 74.1777s-74.1777 -33.2588 -74.1777 -74.1777h-16.5283c0 27.7158 12.4971 52.5088 32.1504 69.1387c-7.86133 6.04688 -17.6377 9.47363 -27.7158 9.47363c-25.0957 0 -45.5557 -20.46 -45.5557 -45.6562h-16.5283
c0 25.499 15.4199 47.3691 37.4922 56.9434c-5.03906 5.74512 -8.16406 13.2031 -8.16406 21.3672c0 18.04 14.7148 32.7549 32.7559 32.7549c18.04 0 32.7549 -14.7148 32.7549 -32.7549c0 -8.16406 -3.125 -15.6221 -8.16406 -21.3672
c6.34961 -2.7207 12.0947 -6.4502 17.2344 -11.0859c4.63574 2.62012 9.47363 4.7373 14.5127 6.55078c-9.57422 8.46582 -15.7217 20.7617 -15.7217 34.4688c0 25.1963 20.3584 45.6553 45.6553 45.6553s45.7559 -20.459 45.7559 -45.6553
c0 -13.8076 -6.14746 -26.1035 -15.7217 -34.4688c5.03906 -1.81348 9.87695 -3.93066 14.5127 -6.55078c5.13965 4.63574 10.9854 8.36523 17.2344 11.0859c-5.03906 5.74512 -8.16406 13.2031 -8.16406 21.3672c0 18.04 14.7148 32.7549 32.7549 32.7549
c18.041 0 32.7559 -14.7148 32.7559 -32.7549c0 -8.26465 -3.125 -15.6221 -8.16406 -21.3672zM103.305 279.28c8.96973 0 16.2266 7.25684 16.2266 16.2266s-7.25684 16.2256 -16.2266 16.2256s-16.2266 -7.25586 -16.2266 -16.2256
c0 -8.86914 7.25684 -16.2266 16.2266 -16.2266zM189.576 274.846c16.126 0 29.2275 13.1016 29.2275 29.2275s-13.1016 29.2275 -29.2275 29.2275s-29.2275 -13.1016 -29.2275 -29.2275c0 -16.0244 13.1016 -29.2275 29.2275 -29.2275zM275.848 279.28
c8.9707 0 16.2266 7.25684 16.2266 16.2266s-7.25586 16.2256 -16.2266 16.2256c-8.96973 0 -16.2256 -7.25586 -16.2256 -16.2256c0 -8.86914 7.25586 -16.2266 16.2256 -16.2266zM495.055 34.4736c22.5762 -22.4746 22.5762 -59.0596 0.101562 -81.5352
c-10.8848 -10.8848 -25.3984 -16.9316 -40.8184 -16.9316s-29.9326 6.04688 -40.8174 16.9316l-105.724 105.724l15.6221 15.6221l-27.4141 27.4131c-30.3359 -20.7617 -67.0215 -32.8555 -106.429 -32.8555c-104.514 0 -189.576 85.0625 -189.576 189.576
s85.0625 189.576 189.576 189.576s189.576 -85.0625 189.576 -189.576c0 -39.4072 -12.1943 -76.0928 -32.8555 -106.429l27.4131 -27.4141l15.6221 15.6221zM298.424 124.071c0.604492 0.40332 1.20898 0.806641 1.71289 1.31055
c8.16406 6.75293 15.7227 14.3115 22.4756 22.4746c0.40332 0.605469 0.907227 1.10938 1.31055 1.71387c24.1875 29.7314 38.7012 67.626 38.7012 108.848c0 95.4434 -77.6045 173.047 -173.048 173.047s-173.048 -77.6035 -173.048 -173.047
s77.6045 -173.048 173.048 -173.048c41.2207 0 79.1162 14.5127 108.848 38.7012zM483.465 -35.4707c16.0244 16.125 16.0244 42.2285 0 58.1523l-94.0322 94.0322l-15.6221 -15.6211l-37.29 37.29c-0.302734 -0.40332 -0.705078 -0.805664 -1.1084 -1.20898
c-3.22559 -3.83008 -6.55078 -7.45801 -10.0791 -11.0869c-1.1084 -1.20898 -2.31738 -2.31738 -3.42676 -3.42676c-3.62793 -3.52734 -7.35645 -6.85254 -11.1865 -10.0781c-0.40332 -0.302734 -0.806641 -0.705078 -1.20996 -1.1084l37.291 -37.291l-15.6221 -15.6211
l94.0322 -94.0322c7.76074 -7.76074 18.1416 -12.0947 29.127 -12.0947s21.3662 4.33398 29.127 12.0947zM439.814 -2.93262l-11.6875 11.6875l11.6875 11.6875l11.6875 -11.6875zM416.546 20.4199l-11.6924 11.6826l11.6826 11.6924l11.6924 -11.6826zM393.272 43.6836
l-11.6875 11.6875l11.6875 11.6865l11.6875 -11.6865z" />
    <glyph glyph-name="uniF100" unicode="&#xf100;" 
d="M493.297 288.307c12.4814 -30.8818 18.7031 -63.6895 18.7041 -96.4834c-0.000976562 -32.75 -6.25 -65.498 -18.7441 -96.3154c-12.4902 -30.8145 -31.2432 -59.6963 -56.1582 -84.6074c-24.9121 -24.916 -53.793 -43.668 -84.6064 -56.1582
c-30.8184 -12.4941 -63.5674 -18.7432 -96.3154 -18.7432c-32.7939 0.00195312 -65.6016 6.22266 -96.4834 18.7031c-30.8779 12.4766 -59.8281 31.2314 -84.792 56.1992c-24.9697 24.9639 -43.7236 53.915 -56.2002 84.792
c-12.4795 30.8828 -18.7012 63.6904 -18.7012 96.4844c0 32.75 6.24902 65.498 18.7441 96.3135c12.4902 30.8145 31.2432 59.6953 56.1582 84.6064c24.9092 24.9141 53.79 43.667 84.6025 56.1582c30.8164 12.4951 63.5645 18.7441 96.3115 18.7441
c32.7949 0 65.6045 -6.21973 96.4863 -18.7012c30.8779 -12.4766 59.8301 -31.2305 84.7949 -56.2002c24.9688 -24.9639 43.7227 -53.9141 56.1992 -84.792zM461.611 108.34c10.8174 26.6797 16.2402 55.0781 16.2412 83.4854c0 28.4766 -5.40527 56.9473 -16.2139 83.6875
c-10.8115 26.7441 -27.0068 51.7598 -48.6846 73.4414c-21.6826 21.6787 -46.7002 37.875 -73.4453 48.6855c-26.7412 10.8086 -55.2129 16.2129 -83.6904 16.2129c-28.4053 0 -56.8027 -5.42383 -83.4805 -16.2412c-26.6816 -10.8223 -51.6455 -27.0195 -73.2891 -48.6592
c-21.6406 -21.6436 -37.8379 -46.6084 -48.6592 -73.291c-10.8164 -26.6797 -16.2402 -55.0771 -16.2393 -83.4824c-0.000976562 -28.4766 5.4043 -56.9473 16.2129 -83.6885c10.8105 -26.7451 27.0068 -51.7598 48.6846 -73.4434
c21.6807 -21.6768 46.6973 -37.8721 73.4414 -48.6846c26.7412 -10.8086 55.2109 -16.2139 83.6875 -16.2139c28.4062 0 56.8057 5.42285 83.4844 16.2402c26.6826 10.8223 51.6475 27.0195 73.291 48.6592c21.6406 21.6445 37.8379 46.6094 48.6592 73.292z
M279.627 191.999l82.6934 -82.6934c6.52441 -6.52441 6.52441 -17.1025 0 -23.627c-6.52539 -6.52344 -17.1025 -6.52344 -23.627 0l-82.6934 82.6934l-82.6934 -82.6943c-6.52441 -6.52344 -17.1016 -6.52344 -23.627 0c-6.52344 6.52539 -6.52344 17.1045 0 23.627
l82.6934 82.6934l-82.6934 82.6934c-6.52344 6.52441 -6.52344 17.1025 0 23.627c6.52539 6.52344 17.1025 6.52344 23.627 0l82.6934 -82.6934l82.6934 82.6943c6.52441 6.52344 17.1025 6.52344 23.627 0c6.52441 -6.52539 6.52441 -17.1025 0 -23.627z" />
    <glyph glyph-name="uniF102" unicode="&#xf102;" 
d="M256.002 448c141.156 0 256.001 -114.842 256.001 -256.002c0 -141.159 -114.842 -256.001 -256.001 -256.001c-141.16 0 -256.002 114.842 -256.002 256.001c0 141.16 114.842 256.002 256.002 256.002zM256.002 -20.1162c116.954 0 212.114 95.1572 212.114 212.114
c0 116.958 -95.1572 212.115 -212.114 212.115c-116.958 0 -212.115 -95.1572 -212.115 -212.115c0 -116.957 95.1572 -212.114 212.115 -212.114zM355.058 291.043c8.57227 -8.57129 8.57227 -22.459 0 -31.0303l-68.0283 -68.0352l68.0312 -68.0342
c8.57227 -8.57227 8.57227 -22.4561 0 -31.0283c-4.28711 -4.28711 -9.89941 -6.42871 -15.5146 -6.42871s-11.2314 2.14453 -15.5156 6.42871l-68.0283 68.0352l-68.0293 -68.0352c-4.27832 -4.28711 -9.90039 -6.42871 -15.5156 -6.42871
s-11.2305 2.14453 -15.5146 6.42871c-8.57227 8.57227 -8.57227 22.4561 0 31.0283l68.0312 68.0371l-68.0283 68.0352c-8.57227 8.57129 -8.57227 22.4561 0 31.0273c8.57129 8.57227 22.4551 8.57227 31.0273 0l68.0293 -68.0371l68.0283 68.0371
c8.55664 8.57227 22.4561 8.57227 31.0273 0z" />
    <glyph glyph-name="uniF117" unicode="&#xf117;" 
d="M469.344 400c23.5684 0 42.6562 -19.0879 42.6562 -42.6562v-378.672c0 -23.5684 -19.0879 -42.6719 -42.6562 -42.6719h-426.672c-23.5684 0 -42.6719 19.1035 -42.6719 42.6719v378.672c0 23.5684 19.1035 42.6562 42.6719 42.6562h69.3281v32
c0 8.84766 7.16797 16 16 16s16 -7.15234 16 -16v-32h96v32c0 8.84766 7.16797 16 16 16s16 -7.15234 16 -16v-32h96v32c0 8.84766 7.15234 16 16 16s16 -7.15234 16 -16v-32h69.3438zM480 -21.3281v378.672c0 5.87207 -4.78418 10.6562 -10.6562 10.6562h-69.3438v-32
c0 -8.84766 -7.15234 -16 -16 -16s-16 7.15234 -16 16v32h-96v-32c0 -8.84766 -7.16797 -16 -16 -16s-16 7.15234 -16 16v32h-96v-32c0 -8.84766 -7.16797 -16 -16 -16s-16 7.15234 -16 16v32h-69.3281c-5.8877 0 -10.6719 -4.78418 -10.6719 -10.6562v-378.672
c0 -5.8877 4.78418 -10.6719 10.6719 -10.6719h426.672c5.87207 0 10.6562 4.78418 10.6562 10.6719zM112 208v48h64v-48h-64zM112 128v48h64v-48h-64zM112 48v48h64v-48h-64zM224 48v48h64v-48h-64zM224 128v48h64v-48h-64zM224 208v48h64v-48h-64zM336 48v48h64v-48h-64z
M336 128v48h64v-48h-64zM336 208v48h64v-48h-64z" />
    <glyph glyph-name="uniF105" unicode="&#xf105;" 
d="M512 413.12c-0.0390625 -9.32324 -3.70215 -18.0986 -10.3164 -24.7109c-4.49316 -4.49414 -17.3779 -14.5977 -34.9287 -26.6738c0.688477 -3.38574 1.05078 -6.88574 1.05078 -10.4707v-121.463c0 -16.3965 -6.38477 -31.8105 -17.9775 -43.4043l-242.792 -242.791
c-5.06641 -5.06641 -11.7217 -7.60059 -18.3779 -7.60059s-13.3105 2.5332 -18.3779 7.60059l-162.667 162.667c-4.90918 4.90723 -7.61328 11.4355 -7.61328 18.3779c0 6.94141 2.7041 13.4688 7.61328 18.3779l242.79 242.793
c11.5947 11.5928 27.0088 17.9775 43.4043 17.9775h121.465c19.333 0 36.249 -10.5049 45.3691 -26.0986c15.4189 10.7705 26.1816 19.3076 29.3125 22.4385c3.49707 3.49902 5.43457 8.13379 5.45605 13.0508c0.0205078 4.8916 -1.8623 9.47852 -5.29883 12.916
c-3.41797 3.41895 -7.97559 5.29883 -12.8369 5.29883h-0.0791016c-4.91797 -0.0214844 -9.55273 -1.95898 -13.0508 -5.45605c-1.6748 -1.67578 -5.28125 -5.81543 -9.64551 -11.0713c-2.92578 -3.52539 -8.15625 -4.00879 -11.6797 -1.08301
c-3.52539 2.9248 -4.00977 8.15527 -1.08301 11.6797c2.78613 3.35742 7.87891 9.40527 10.6787 12.2051c6.61328 6.6123 15.3887 10.2754 24.7109 10.3145c9.33105 0.0341797 18.125 -3.56836 24.7148 -10.1582s10.1982 -15.3672 10.1592 -24.7158zM451.217 229.802
h-0.000976562v121.462c0 0.0273438 -0.00195312 0.0537109 -0.00292969 0.0810547c-8.9707 -5.82715 -18.6914 -11.8496 -28.8145 -17.7432c3.03516 -11.5908 0.0302734 -24.4492 -9.03613 -33.5166c-6.79199 -6.79199 -15.7139 -10.1865 -24.6357 -10.1865
c-8.9209 0 -17.8428 3.39453 -24.6348 10.1865c-13.584 13.584 -13.584 35.6865 0 49.2705s35.6865 13.584 49.2705 0c0.384766 -0.385742 0.755859 -0.779297 1.11914 -1.17773c11.6387 6.78418 22.6094 13.6836 32.4072 20.1709
c-6.08789 11.2227 -17.9775 18.8594 -31.6172 18.8594h-121.464c-11.9639 0 -23.2119 -4.65918 -31.6729 -13.1191l-242.791 -242.791c-1.77539 -1.77441 -2.75391 -4.13477 -2.75391 -6.64648c0 -2.5127 0.979492 -4.87305 2.75391 -6.64844l162.667 -162.667
c3.66504 -3.66504 9.63086 -3.66504 13.2949 0l242.792 242.793c8.45898 8.45898 13.1191 19.708 13.1191 31.6729zM381.319 320.993c-2.06055 4.0918 -0.411133 9.0791 3.68359 11.1357c4.80273 2.41699 9.56836 4.91602 14.2627 7.46777
c-3.14648 2.22949 -6.83594 3.36328 -10.5352 3.36328c-4.67383 0 -9.34668 -1.77832 -12.9043 -5.33594c-7.11523 -7.11621 -7.11523 -18.6924 0 -25.8076c7.11621 -7.11523 18.6914 -7.11523 25.8076 0c3.60645 3.60547 5.37598 8.35547 5.32812 13.0908
c-4.79688 -2.60645 -9.6416 -5.15039 -14.5039 -7.59668c-1.19629 -0.601562 -2.46875 -0.886719 -3.72168 -0.886719c-3.03613 0 -5.95996 1.67188 -7.41699 4.56934zM247.162 279.038c4.58105 0 8.29492 -3.71289 8.29492 -8.29492v-175.179
c0 -4.58105 -3.71387 -8.2959 -8.29492 -8.2959s-8.29492 3.71484 -8.29492 8.2959v175.179c0 4.58203 3.71387 8.29492 8.29492 8.29492zM209.231 207.787c6.58008 -6.5791 10.2051 -15.3281 10.2051 -24.6338c0 -9.30664 -3.62305 -18.0547 -10.2041 -24.6357
c-6.79102 -6.79004 -15.7148 -10.1865 -24.6348 -10.1865c-8.92188 -0.000976562 -17.8418 3.39355 -24.6348 10.1865c-13.584 13.584 -13.584 35.6865 0 49.2705c13.582 13.584 35.6855 13.585 49.2686 -0.000976562zM197.501 170.25
c3.44727 3.44727 5.34473 8.0293 5.3457 12.9043c0 4.875 -1.89746 9.45703 -5.34473 12.9033c-3.55762 3.55859 -8.23047 5.33594 -12.9043 5.33594c-4.67285 0 -9.3457 -1.77734 -12.9033 -5.33594c-7.11523 -7.11523 -7.11523 -18.6914 0 -25.8076
c7.11426 -7.11523 18.6904 -7.11621 25.8066 0zM334.36 207.788c13.584 -13.584 13.584 -35.6865 0.000976562 -49.2705c-6.79102 -6.79199 -15.7129 -10.1865 -24.6348 -10.1865s-17.8428 3.39453 -24.6348 10.1865c-13.584 13.584 -13.584 35.6865 0 49.2705
c13.5811 13.584 35.6846 13.585 49.2686 0zM322.629 170.25c7.11621 7.11621 7.11621 18.6924 0.000976562 25.8076c-3.55762 3.55859 -8.23047 5.33594 -12.9043 5.33594c-4.67285 0 -9.3457 -1.77734 -12.9033 -5.33594c-7.11523 -7.11523 -7.11523 -18.6914 0 -25.8076
c7.11426 -7.11523 18.6904 -7.11621 25.8066 0z" />
    <glyph glyph-name="uniF115" unicode="&#xf115;" 
d="M256 448c99.252 0 180 -80.748 180 -180c0 -32.5391 -8.7793 -64.4277 -25.3887 -92.2197l-139.243 -232.488c-2.6875 -4.48828 -7.51953 -7.25098 -12.75 -7.29199h-0.119141c-5.18555 0 -10.0078 2.67969 -12.7451 7.09082l-142.885 230.257
c-17.5801 28.3926 -26.8691 61.1182 -26.8691 94.6523c0 99.252 80.748 180 180 180zM384.866 191.182c13.8232 23.1299 21.2334 49.6973 21.2334 76.8184c0 82.71 -67.3896 150.2 -150.1 150.2s-150.2 -67.4902 -150.2 -150.2
c0 -27.9502 7.93457 -55.2139 22.5674 -78.8457l129.905 -209.34zM256 358c49.626 0 90 -40.374 90 -90c0 -48.7666 -39.0967 -90 -90 -90c-50.2832 0 -90 40.6914 -90 90c0 49.626 40.374 90 90 90zM256 207.8c33.7842 0 60.0996 27.5176 60.0996 60.2002
c0 33.084 -27.0156 60.2002 -60.0996 60.2002s-60.2002 -27.1162 -60.2002 -60.2002c0 -33.167 26.9434 -60.2002 60.2002 -60.2002z" />
  </font>
</defs></svg>
