<?xml version="1.0" standalone="no"?>
<!DOCTYPE svg PUBLIC "-//W3C//DTD SVG 1.1//EN" "http://www.w3.org/Graphics/SVG/1.1/DTD/svg11.dtd">
<svg xmlns="http://www.w3.org/2000/svg">
<metadata>Copyright (C) 2018 by original authors @ fontello.com</metadata>
<defs>
<font id="fontello" horiz-adv-x="1000" >
<font-face font-family="fontello" font-weight="400" font-stretch="normal" units-per-em="1000" ascent="850" descent="-150" />
<missing-glyph horiz-adv-x="1000" />
<glyph glyph-name="leave" unicode="&#xe800;" d="M729 428h-390a16 16 0 0 1 0-31h390a16 16 0 0 1 0 31z m-390 94h156a16 16 0 0 1 0 32h-156a16 16 0 0 1 0-32z m390-219h-390a16 16 0 0 1 0-31h390a16 16 0 0 1 0 31z m63 289v228h-672v-862h78v-78h672v633z m-141 96l141-141 25-25h-166v166z m-500-698v799h610v-166l-119 119h-444v-752h-47z m78-79v799h391v-219h219v-580h-610z m251 222a76 76 0 0 1-9 27 44 44 0 0 1-18 17 70 70 0 0 1-56 0 49 49 0 0 1-19-18 80 80 0 0 1-10-27 182 182 0 0 1-3-36 221 221 0 0 1 2-36 77 77 0 0 1 9-26 44 44 0 0 1 18-17 70 70 0 0 1 56 0 49 49 0 0 1 19 17 79 79 0 0 1 10 28 185 185 0 0 1 4 35 227 227 0 0 1-3 36z m-32-55a112 112 0 0 0-1-15 63 63 0 0 0-3-11 27 27 0 0 0-5-8 19 19 0 0 0-7-5 23 23 0 0 0-9-1 22 22 0 0 0-11 2 20 20 0 0 0-8 10 67 67 0 0 0-4 19 252 252 0 0 0-1 29 246 246 0 0 0 1 25 71 71 0 0 0 4 18 24 24 0 0 0 7 11 20 20 0 0 0 13 4 26 26 0 0 0 8-1 16 16 0 0 0 6-4 23 23 0 0 0 5-7 58 58 0 0 0 3-12 126 126 0 0 0 2-15q1-9 1-21 0-10-1-18z m164 11a39 39 0 0 1-11 15 48 48 0 0 1-18 9 82 82 0 0 1-23 3q-5 0-10 0t-8-1v36h58a4 4 0 0 1 4 3 34 34 0 0 1 1 12 59 59 0 0 1 0 6 17 17 0 0 1-1 5 6 6 0 0 1-2 2 4 4 0 0 1-2 1h-78a8 8 0 0 1-6-2 11 11 0 0 1-2-8v-72a11 11 0 0 1 1-7 7 7 0 0 1 6-2 91 91 0 0 1 11 1 107 107 0 0 0 13 1 65 65 0 0 0 16-2 27 27 0 0 0 11-5 20 20 0 0 0 6-8 30 30 0 0 0 2-11 30 30 0 0 0-3-12 23 23 0 0 0-6-9 26 26 0 0 0-10-5 55 55 0 0 0-14-1 63 63 0 0 0-14 1 68 68 0 0 0-11 3 68 68 0 0 0-7 4 9 9 0 0 1-4 1 3 3 0 0 1-1 0 5 5 0 0 1-2-3 17 17 0 0 1-1-4 61 61 0 0 1 0-6q0-3 0-5a29 29 0 0 1 1-4 13 13 0 0 1 1-3 6 6 0 0 1 1-2 19 19 0 0 1 5-3 72 72 0 0 1 9-3 103 103 0 0 1 12-2 105 105 0 0 1 15-1 86 86 0 0 1 26 4 59 59 0 0 1 21 11 49 49 0 0 1 13 18 59 59 0 0 1 4 24 55 55 0 0 1-3 21z" horiz-adv-x="1000" />
</font>
</defs>
</svg>