<?xml version="1.0" standalone="no"?>
<!DOCTYPE svg PUBLIC "-//W3C//DTD SVG 1.1//EN" "http://www.w3.org/Graphics/SVG/1.1/DTD/svg11.dtd" >
<svg xmlns="http://www.w3.org/2000/svg">
<metadata>Generated by IcoMoon</metadata>
<defs>
<font id="icomoon" horiz-adv-x="1024">
<font-face units-per-em="1024" ascent="960" descent="-64" />
<missing-glyph horiz-adv-x="1024" />
<glyph unicode="&#x20;" horiz-adv-x="512" d="" />
<glyph unicode="&#xe900;" glyph-name="leave" d="M746.895 528.189h-400.005c-8.686-0.226-15.641-7.321-15.641-16.041s6.955-15.815 15.62-16.041h400.026c8.686 0.226 15.641 7.321 15.641 16.041s-6.955 15.815-15.62 16.041h-0.021zM346.89 624.445h159.99c8.686 0.226 15.641 7.321 15.641 16.041s-6.955 15.815-15.62 16.041h-160.011c-8.686-0.226-15.641-7.321-15.641-16.041s6.955-15.815 15.62-16.041h0.021zM746.895 399.872h-400.005c-8.686-0.226-15.641-7.321-15.641-16.041s6.955-15.815 15.62-16.041h400.026c8.686 0.226 15.641 7.321 15.641 16.041s-6.955 15.815-15.62 16.041h-0.021zM810.895 695.276v234.004h-688.015v-882.35h80.005v-80.21h687.995v648.325zM666.89 794.266l169.38-169.83h-169.38v169.83zM154.89 79.012v818.156h624.005v-169.83l-121.375 121.702h-454.656v-770.048h-47.985zM234.895-1.198v818.145h399.985v-224.563h224.020v-593.582h-624.015zM491.612 226.048c-1.461 10.269-4.722 19.526-9.468 27.824l0.201-0.381c-4.338 7.344-10.484 13.207-17.839 17.086l-0.245 0.118c-8.412 3.777-18.234 5.977-28.569 5.977-10.505 0-20.479-2.273-29.457-6.353l0.447 0.182c-7.946-4.201-14.432-10.217-19.069-17.522l-0.121-0.203c-5.010-8.042-8.746-17.445-10.642-27.498l-0.080-0.508c-2.121-10.54-3.335-22.657-3.335-35.057 0-0.581 0.003-1.162 0.008-1.742l-0.001 0.089c-0.005-0.578-0.008-1.26-0.008-1.944 0-12.272 0.975-24.317 2.851-36.060l-0.17 1.294c1.505-10.275 4.787-19.526 9.541-27.827l-0.203 0.384c4.327-7.333 10.45-13.194 17.779-17.085l0.243-0.118c8.424-3.777 18.257-5.977 28.605-5.977 10.517 0 20.503 2.273 29.495 6.354l-0.448-0.182c7.946 4.201 14.432 10.217 19.069 17.522l0.121 0.203c4.999 8.033 8.709 17.43 10.563 27.478l0.076 0.498c2.083 10.542 3.274 22.662 3.274 35.061 0 0.601-0.003 1.202-0.008 1.802l0.001-0.092c0.005 0.556 0.008 1.213 0.008 1.87 0 12.285-0.952 24.348-2.787 36.118l0.168-1.308zM459.162 169.38c-0.274-5.464-0.881-10.562-1.81-15.548l0.11 0.71c-0.798-4.407-1.905-8.288-3.345-12.002l0.15 0.441c-1.202-3.184-2.859-5.927-4.923-8.308l0.029 0.034c-1.855-2.097-4.143-3.767-6.727-4.878l-0.123-0.047c-2.535-1.039-5.478-1.643-8.562-1.643-0.158 0-0.316 0.002-0.473 0.005h0.024c-0.195-0.006-0.424-0.009-0.654-0.009-4.026 0-7.806 1.051-11.082 2.894l0.114-0.059c-3.582 2.354-6.328 5.721-7.858 9.692l-0.047 0.138c-2.248 5.531-3.843 11.943-4.484 18.634l-0.022 0.279c-0.922 8.183-1.448 17.669-1.448 27.278 0 0.958 0.005 1.915 0.016 2.871l-0.001-0.146c-0.003 0.482-0.005 1.052-0.005 1.623 0 8.584 0.43 17.068 1.268 25.432l-0.086-1.055c0.591 6.855 2.044 13.187 4.259 19.148l-0.163-0.501c1.613 4.554 4.365 8.369 7.918 11.226l0.048 0.038c3.316 2.349 7.443 3.754 11.9 3.754 0.291 0 0.582-0.006 0.87-0.018l-0.041 0.001c0.095 0.001 0.208 0.002 0.32 0.002 2.777 0 5.453-0.431 7.966-1.231l-0.186 0.051c2.561-0.849 4.75-2.223 6.533-4.004v0c2.047-2.112 3.702-4.618 4.838-7.391l0.056-0.156c1.389-3.295 2.562-7.17 3.33-11.189l0.059-0.371c0.929-4.574 1.658-10.088 2.028-15.7l0.020-0.387q0.655-9.216 0.655-21.34-0.010-9.984-0.471-18.268zM626.35 180.347c-2.497 6.156-6.254 11.346-10.979 15.451l-0.049 0.042c-5.016 4.212-10.995 7.46-17.546 9.366l-0.343 0.086c-6.916 2.047-14.863 3.225-23.084 3.225-0.445 0-0.89-0.003-1.333-0.010l0.067 0.001q-4.966 0-9.472-0.133t-9.073-0.655v36.383h60.058c1.98 0.178 3.576 1.625 3.978 3.514l0.005 0.029c0.897 2.919 1.413 6.275 1.413 9.752 0 0.59-0.015 1.176-0.044 1.758l0.003-0.082c0.001 0.14 0.002 0.305 0.002 0.471 0 2.215-0.12 4.401-0.353 6.554l0.023-0.267c-0.146 1.668-0.509 3.208-1.063 4.653l0.039-0.117c-0.376 1.001-0.98 1.843-1.752 2.491l-0.009 0.007c-0.604 0.484-1.378 0.78-2.22 0.788h-80.089c-0.219 0.021-0.474 0.033-0.732 0.033-2.231 0-4.253-0.892-5.731-2.338l0.001 0.001c-1.308-1.824-2.091-4.1-2.091-6.56 0-0.347 0.016-0.691 0.046-1.031l-0.003 0.044v-73.851c-0.037-0.342-0.059-0.738-0.059-1.139 0-2.181 0.628-4.215 1.714-5.931l-0.027 0.046c1.223-1.198 2.9-1.938 4.749-1.938 0.235 0 0.468 0.012 0.697 0.035l-0.029-0.002c4.138 0.019 8.19 0.304 12.163 0.841l-0.479-0.053c3.949 0.503 8.518 0.79 13.154 0.79 0.218 0 0.435-0.001 0.652-0.002h-0.033c0.356 0.007 0.775 0.011 1.196 0.011 5.318 0 10.489-0.627 15.444-1.812l-0.45 0.091c4.151-0.968 7.787-2.745 10.896-5.167l-0.062 0.047c2.691-2.18 4.792-4.985 6.095-8.199l0.049-0.136c1.242-3.178 1.961-6.857 1.961-10.705 0-0.197-0.002-0.393-0.006-0.589v0.029c0.006-0.234 0.010-0.509 0.010-0.785 0-4.266-0.87-8.329-2.441-12.021l0.076 0.201c-1.551-3.491-3.811-6.417-6.614-8.701l-0.042-0.033c-2.951-2.335-6.476-4.088-10.321-5.021l-0.185-0.038c-3.965-1.004-8.518-1.58-13.204-1.58-0.2 0-0.399 0.001-0.599 0.003h0.030c-0.309-0.005-0.674-0.008-1.039-0.008-4.952 0-9.773 0.555-14.407 1.607l0.434-0.083c-4.137 0.957-7.689 2.106-11.104 3.519l0.465-0.17c-2.842 1.163-5.159 2.286-7.4 3.529l0.355-0.181c-1.131 0.762-2.479 1.295-3.933 1.499l-0.050 0.006c-0.013 0-0.029 0-0.045 0-0.683 0-1.309-0.248-1.792-0.659l0.004 0.003c-0.621-0.602-1.094-1.353-1.362-2.195l-0.010-0.037c-0.423-1.199-0.724-2.591-0.846-4.034l-0.004-0.062c-0.171-1.73-0.268-3.74-0.268-5.772 0-0.163 0.001-0.326 0.002-0.489v0.025q0-3.42 0.133-5.908c0.064-1.496 0.229-2.904 0.49-4.279l-0.029 0.183c0.2-1.069 0.494-2.017 0.884-2.913l-0.034 0.087c0.396-0.858 0.945-1.581 1.62-2.164l0.008-0.007c1.353-0.992 2.906-1.836 4.567-2.455l0.133-0.043c2.484-1.045 5.553-2.078 8.705-2.907l0.511-0.114c3.452-0.958 7.742-1.832 12.118-2.436l0.549-0.062c4.45-0.652 9.588-1.024 14.813-1.024 0.027 0 0.053 0 0.080 0h-0.004c0.311-0.004 0.678-0.006 1.046-0.006 9.299 0 18.26 1.444 26.672 4.12l-0.622-0.171c8.045 2.524 15.009 6.408 20.981 11.431l-0.092-0.075c5.717 4.92 10.274 11.020 13.319 17.936l0.127 0.322c3.016 6.955 4.77 15.056 4.77 23.566 0 0.355-0.003 0.709-0.009 1.063l0.001-0.053c0.010 0.396 0.016 0.863 0.016 1.331 0 7.277-1.377 14.231-3.886 20.618l0.133-0.383z" />
</font></defs></svg>